*** Life<FredkinCell> 8x7 ***

Generation = 0, Population = 8.
--0----
------0
-------
-----0-
--0----
-0-----
-0---0-
----0--

Generation = 8, Population = 14.
-3---3-
-2--2--
-21--3-
-3---2-
--2----
-----31
--3----
------4

Generation = 16, Population = 11.
--5----
-----3-
-------
-5----4
-3---4-
----77-
--6----
-5--2--

Generation = 24, Population = 17.
--8----
-5---5-
-8+--+-
-9--677
-4---5-
-7---78
--8----
-----3-

*** Life<FredkinCell> 13x12 ***

Generation = 0, Population = 2.
------------
------------
---------0--
------------
------------
------------
------------
------------
------------
--------0---
------------
------------
------------

Generation = 7, Population = 34.
----0-----0-
---0-0---0-0
--0-0-0---0-
---0-0------
----0-----0-
-----------0
----0-------
---0-0-----0
--0-0-0---0-
-0-0-0-0-0--
--0-0-0-----
---0-0------
----0-------

Generation = 14, Population = 31.
------------
--0-------0-
------------
0---0-------
-----0------
0-0---0---0-
---0---0----
0-0-0---0---
-0---0---0--
0-0-0-0-----
---0---0-0-0
--0-0-------
-----0-0-0--

Generation = 21, Population = 31.
------0-----
-0-0-----0--
0-0-0---0-0-
-0----------
0---0-0---0-
-0-0-0------
0-------0---
---------0-0
------0---0-
---0---0----
----0-------
-----0-----0
----0-0-0---

Generation = 28, Population = 33.
-0-------0--
0-0---0---0-
-0---0-0-0--
------------
-----0-0---0
--0-0-0---0-
-0-------0--
------------
---0---0-0-0
0-----0---0-
-----0-0---0
------------
---0---0-0-0

*** Life<FredkinCell> 37x17 ***

Generation = 0, Population = 2.
-----------------
-----------------
-----0-----------
-----------------
-----------------
-----------------
-----------------
-----------------
-----------------
-----------------
-----------------
-----------------
----0------------
-----------------
-----------------
-----------------
-----------------
-----------------
-----------------
-----------------
-----------------
-----------------
-----------------
-----------------
-----------------
-----------------
-----------------
-----------------
-----------------
-----------------
-----------------
-----------------
-----------------
-----------------
-----------------
-----------------
-----------------

Generation = 1, Population = 8.
-----------------
-----0-----------
----0-0----------
-----0-----------
-----------------
-----------------
-----------------
-----------------
-----------------
-----------------
-----------------
----0------------
---0-0-----------
----0------------
-----------------
-----------------
-----------------
-----------------
-----------------
-----------------
-----------------
-----------------
-----------------
-----------------
-----------------
-----------------
-----------------
-----------------
-----------------
-----------------
-----------------
-----------------
-----------------
-----------------
-----------------
-----------------
-----------------

Generation = 2, Population = 8.
-----0-----------
-----------------
---0---0---------
-----------------
-----0-----------
-----------------
-----------------
-----------------
-----------------
-----------------
----0------------
-----------------
--0---0----------
-----------------
----0------------
-----------------
-----------------
-----------------
-----------------
-----------------
-----------------
-----------------
-----------------
-----------------
-----------------
-----------------
-----------------
-----------------
-----------------
-----------------
-----------------
-----------------
-----------------
-----------------
-----------------
-----------------
-----------------

Generation = 3, Population = 31.
----0-0----------
---0-0-0---------
--0-0-0-0--------
---0-0-0---------
----0-0----------
-----0-----------
-----------------
-----------------
-----------------
----0------------
---0-0-----------
--0-0-0----------
-0-0-0-0---------
--0-0-0----------
---0-0-----------
----0------------
-----------------
-----------------
-----------------
-----------------
-----------------
-----------------
-----------------
-----------------
-----------------
-----------------
-----------------
-----------------
-----------------
-----------------
-----------------
-----------------
-----------------
-----------------
-----------------
-----------------
-----------------

Generation = 4, Population = 8.
-----0-----------
-----------------
-0-------0-------
-----------------
-----------------
-----------------
-----0-----------
-----------------
----0------------
-----------------
-----------------
-----------------
0-------0--------
-----------------
-----------------
-----------------
----0------------
-----------------
-----------------
-----------------
-----------------
-----------------
-----------------
-----------------
-----------------
-----------------
-----------------
-----------------
-----------------
-----------------
-----------------
-----------------
-----------------
-----------------
-----------------
-----------------
-----------------

*** Life<FredkinCell> 27x16 ***

Generation = 0, Population = 3.
----------------
----------------
----------------
----------------
----------------
----------------
----------------
----------------
----------------
----------------
----------------
----------------
----------------
----------------
----------------
-------0-0------
----0-----------
----------------
----------------
----------------
----------------
----------------
----------------
----------------
----------------
----------------
----------------

Generation = 9, Population = 28.
----------------
----------------
----------------
----------------
----------------
----------------
-------0-0------
----0-0---0-----
---0-0-0-0------
----0-----------
----------------
----------------
----------------
----------------
-0--------------
0-----------0---
---0-------0-0--
--0---------0---
----------------
----------------
----------------
----------------
-------0-0------
----0-0---0-----
---0-0-0-0------
----0-----------
----------------

Generation = 18, Population = 30.
--0-0-0---------
----------------
----0-----------
----------------
----------------
----------------
----------------
----------------
----------------
----------------
----------------
----------------
----------------
-----0---0------
----------0-0---
---0-------0----
--------0-0-0-0-
-----0---0------
----------0-0---
----------------
----0-----------
-------0-0------
--0---0---------
-----0-0-0-0----
----0-----------
-------0-0------
----------------

Generation = 27, Population = 108.
-----0---0-----0
0---0-----0---0-
-0-0-------0-0--
--0-0-------0---
---0-----0------
--0-0---0---0---
-0-0-0-0---0-0--
--0-0---0-0-0-0-
-0-0-0---0-0---0
--0-0-----0---0-
---0---------0--
----------0-0---
---0-0-0-0---0-0
----------0---0-
---0-0-0---0----
0-0---------0-0-
---0---0-0------
0---0-------0---
-0---0-0-0-0-0--
----0---------0-
---0-0-0---0-0--
----0---0-----0-
---------0-0---0
0---0-0-0---0---
-0---0---0-0-0-0
0-0---0-----0-0-
-0-0---0-0---0--

*** Life<FredkinCell> 35x27 ***

Generation = 0, Population = 7.
---------------------------
---------------------------
---------------------------
0--------------------------
---------------------------
-------------0-------------
---------------------------
---------------------------
-------------0-------0-----
---------------------------
---------------------------
---------------------------
---------------------------
---------------------------
---------------------------
-------------------------0-
---------------------------
---------------------------
---------------------------
---0-----------------------
---------------------------
---------------------------
---------------------------
---------------------------
---------------------------
---------------------------
---------------------------
---------------------0-----
---------------------------
---------------------------
---------------------------
---------------------------
---------------------------
---------------------------
---------------------------

Generation = 4, Population = 24.
---------------------------
-------------0-------------
---------------------------
--0-0----------------------
-------------1-------0-----
---------0-------0---------
---------------------------
0--------------------------
---------0---------------0-
-------------1-------------
---------------------------
-------------------------0-
-------------0-------0-----
---------------------------
---------------------------
---0-----------------0---0-
---------------------------
---------------------------
---------------------------
-------0-----------------0-
---------------------------
---------------------------
---------------------------
---0-----------------0-----
---------------------------
---------------------------
---------------------------
-----------------0-------0-
---------------------------
---------------------------
---------------------------
---------------------0-----
---------------------------
---------------------------
---------------------------

Generation = 8, Population = 27.
-------------0-------0-----
-------------1-------------
---------------------------
0-----0-1------------------
---------------------------
-----1---------------1-----
---------------------------
-------------------------1-
-----0-------1-------0---1-
---------------------------
---------------------------
0--0-----------------------
---------------------------
-------------1-------------
---------------------------
-----------------0---1-----
-------------0-------1-----
---------------------------
---------------------------
---0-------0---------0-----
---------------------------
---------------------------
---------------------------
-------------------------0-
---------------------------
---------------------------
---------------------------
---0---------0-----------0-
---------------------------
---------------------------
---------------------------
---------------------------
---------------------------
---------------------------
---------------------------

Generation = 12, Population = 60.
---------0---------------0-
-----1---1---2---0---0-----
-------------5-------2-----
----------0-1------------0-
-----1-------------------1-
-1-------1---1---0-------2-
---------------------------
---1--1-0------------3---3-
-0-------------------1-----
-----1-------2-------1-----
---------------------------
--3-1--0---------0---1---1-
-----1-------------------0-
---------0-------0---------
---------------------------
0----------1-3---0-------0-
---------0---------------0-
-------------1-------------
---------------------------
---------------0-----1-----
-------------1-------1-----
---------------------------
---------------------------
-----------0-0-------------
---------------------------
---------------------------
---------------------------
-------0-0-------0---0-----
---------------------------
---------------------------
---------------------------
---0---------0-----------0-
---------------------------
---------------------------
---------------------------

Generation = 16, Population = 26.
---------------------------
---------------------------
---------------------------
---1----------0-0----------
---------------------------
-2-----------------------4-
-------------3-------3-----
---------------------------
-0---0-----------0-------3-
-------------2-------------
---------------------------
1--------------------3-----
---------------------------
---------------------------
---------------------------
---------1---3-------------
---------------------------
---------------------------
---------------------------
0----------1-------2-------
---------------------------
-------------3-------------
---------------------------
---------------------------
-------------0-------1-----
---------------------------
---------------------------
-----0-----------0---0-----
---------------------------
---------------------------
---------------------------
-------------------------0-
---------------------------
---------------------------
---------------------------

Generation = 20, Population = 83.
---------------------------
-0-----------------------2-
-------------6-------3-----
-------0--0-1-----0-0------
-0---2-----------0-------2-
-3---2-------1-------2---5-
---------2---------------6-
1--1----------1-0----7-----
-----0---0---4-----------4-
-0-------0-------1-------5-
-------------4-------2-----
--3-1----0---3---1-------3-
-0---1-----------0-------1-
-------------1-------------
---------------------------
-----0---1-2-3---0-0-2-----
---------------------------
-------------2-------------
---------------------------
--0-0--0-0---1---------1---
-------------1-------3-----
---------0-------0---------
---------------------------
0----0-----1-----0-1-1-----
---------0---------------0-
-------------1-------------
---------------------------
-0-------0---1---0---1-----
-------------0-------1-----
---------------------------
---------------------------
-----0-----------0-------0-
---------------------------
---------------------------
---------------------------

*** Life<FredkinCell> 35x1 ***

Generation = 0, Population = 13.
0
-
-
-
-
-
0
-
-
-
0
-
0
0
0
0
-
-
-
-
-
0
-
0
0
0
-
0
-
0
-
-
-
-
-

Generation = 6, Population = 19.
-
-
0
-
0
-
-
0
2
3
1
2
2
2
0
-
-
-
-
0
2
4
1
2
-
-
1
3
-
-
0
-
-
0
-

*** Life<FredkinCell> 4x6 ***

Generation = 0, Population = 6.
-00---
---0--
---00-
-----0

Generation = 2, Population = 5.
122---
-1----
-----0
------

Generation = 4, Population = 12.
34-100
---1--
0100-0
-0----

Generation = 6, Population = 10.
563-0-
-----0
2-00-0
-2----

Generation = 8, Population = 10.
-6---1
-3-2-2
2--2--
-2-1-1

Generation = 10, Population = 8.
78-2--
---4-4
2-2---
-2----

Generation = 12, Population = 10.
9----3
---6--
23221-
-2---1

*** Life<FredkinCell> 27x38 ***

Generation = 0, Population = 5.
--------------------------------------
--------------------------------------
--------------------------------------
--------------------------------------
------------------0-------------------
--------------------------------------
--------------------------------------
--------------------------------------
---------------0----------------------
--------------------------------------
--------------------------------------
--------------------------------------
--------------------------------------
--------------------------------------
--------------------------------------
--------------------------------------
--------------------------------------
-----------------------------0--------
--------------------------------------
-----------0--------------------------
--------------------------------------
--------------------------------------
------------0-------------------------
--------------------------------------
--------------------------------------
--------------------------------------
--------------------------------------

Generation = 2, Population = 20.
--------------------------------------
--------------------------------------
------------------0-------------------
--------------------------------------
----------------0---0-----------------
--------------------------------------
---------------0--0-------------------
--------------------------------------
-------------0---0--------------------
--------------------------------------
---------------0----------------------
--------------------------------------
--------------------------------------
--------------------------------------
--------------------------------------
-----------------------------0--------
--------------------------------------
-----------0---------------0---0------
--------------------------------------
---------0---0---------------0--------
------------0-------------------------
-----------0--------------------------
----------0---0-----------------------
--------------------------------------
------------0-------------------------
--------------------------------------
--------------------------------------

Generation = 4, Population = 20.
------------------0-------------------
--------------------------------------
--------------------------------------
--------------------------------------
--------------01------0---------------
--------------------------------------
--------------------------------------
--------------------------------------
-----------0------10------------------
--------------------------------------
--------------------------------------
--------------------------------------
---------------0----------------------
-----------------------------0--------
--------------------------------------
-----------0--------------------------
--------------------------------------
-------------------------0-------0----
------------0-------------------------
-------0-------0----------------------
--------------------------------------
-----------------------------0--------
--------0-------0---------------------
-----------0--------------------------
--------------------------------------
--------------------------------------
------------0-------------------------

Generation = 6, Population = 80.
----------------0-0-0-----------------
--------------------------------------
--------------00--0---0---------------
--------------------------------------
------------01--10--0---0-------------
--------------------------------------
-----------0--00--00--0---------------
--------------------------------------
---------0---0--01--10----------------
--------------------------------------
-----------0---0--00------------------
-----------------------------0--------
-------------0---0--------------------
-----------0---------------0---0------
---------------0----------------------
---------0---0-----------0---0---0----
------------0-------------------------
-------0---0---0-------0---0---0---0--
----------0---0-----------------------
-----0---0---0---0-------0---0---0----
--------0---0---0---------------------
-------0---0---0-----------0---0------
------0---0---0---0-------------------
---------0---0---------------0--------
--------0---0---0---------------------
-----------0--------------------------
----------0-0-0-----------------------

Generation = 8, Population = 19.
---------------1----------------------
--------------------------------------
------------------0-------------------
--------------------------------------
----------0---------------0-----------
--------------------------------------
--------------------------------------
--------------------------------------
-------0---------------0--------------
-----------------------------0--------
--------------------------------------
-----------1--------------------------
------------------1-------------------
--------------------------------------
------------0-------------------------
--------------------------------------
---------------1----------------------
---------------------0---------------0
--------------------------------------
---0---------------0------------------
--------------------------------------
--------------------------------------
----0---------------0-----------------
--------------------------------------
------------0-------------------------
-----------------------------0--------
--------------------------------------

*** Life<FredkinCell> 31x40 ***

Generation = 0, Population = 13.
----------------------------------------
----------------------------------------
-------------------------------0--------
------------------0---------------------
-----------0----------------------------
----------------------------------------
----------------------0-----------------
----------------------------------------
----------------------------------------
----------------0-0-------------0-------
----------------------------------------
----------------------------------------
----------------------------------------
----------------------------------------
----------------------------------------
----------------------------------------
----------------------------------------
-----------------------------------0----
----------------------------------------
----------------------------------------
----------------------------------------
----------------------------------------
----------------------------------------
--------------0-------------------------
----------------------0-----------------
----------------------------------------
----------------------------------------
-----------0----------------------------
---------------0------------------------
----------------------------------------
----------------------------0-----------

Generation = 1, Population = 49.
----------------------------------------
-------------------------------0--------
------------------0-----------0-0-------
-----------0-----0-0-----------0--------
----------0-0-----0---------------------
-----------0----------0-----------------
---------------------0-0----------------
----------------------0-----------------
----------------0-0-------------0-------
---------------0---0-----------0-0------
----------------0-0-------------0-------
----------------------------------------
----------------------------------------
----------------------------------------
----------------------------------------
----------------------------------------
-----------------------------------0----
----------------------------------0-0---
-----------------------------------0----
----------------------------------------
----------------------------------------
----------------------------------------
--------------0-------------------------
-------------0-0------0-----------------
--------------0------0-0----------------
----------------------0-----------------
-----------0----------------------------
----------0-0--0------------------------
-----------0--0-0-----------------------
---------------0------------0-----------
---------------------------0-0----------

*** Life<FredkinCell> 25x37 ***

Generation = 0, Population = 14.
-------------------------------------
-------------------------------------
-------------------------------------
------------0------------------------
-----------------------------------0-
-------------------------------------
--------0----------------------------
-------------------0-----------------
--------0------------------------0---
-------------------------------------
-------------------------------------
-------0--0--------------------------
-----0-------------------------------
------------------------------------0
-------------------------------0-----
-------------------------------------
-------------------------------------
-------------------------------------
-------------------------------------
-------------------------------------
-------------------------------------
------0------------------------------
-------------------------------------
-------------------------------------
------------------------------0---0--

Generation = 1, Population = 51.
-------------------------------------
-------------------------------------
------------0------------------------
-----------0-0---------------------0-
------------0---------------------0-0
--------0--------------------------0-
-------0-0---------0-----------------
------------------0-0------------0---
-------0-0---------0------------0-0--
--------0------------------------0---
-------0--0--------------------------
-----00-00-0-------------------------
----0-00--0-------------------------0
-----0-------------------------0---0-
------------------------------0-0---0
-------------------------------0-----
-------------------------------------
-------------------------------------
-------------------------------------
-------------------------------------
------0------------------------------
-----0-0-----------------------------
------0------------------------------
------------------------------0---0--
-----------------------------0-0-0-0-

Generation = 2, Population = 53.
-------------------------------------
------------0------------------------
-----------------------------------0-
----------0---0----------------------
--------0------------------------0---
------------0------0-----------------
------0-0-0----------------------0-0-
-----------------0---0---------------
------0-0-0--------------------0---0-
-------0--0--------0-----------------
-----0--0------------------------0---
-----1--11--0-----------------------0
---0---1-----------------------0-----
-------0--0-----------------------0-0
-----0-----------------------0---0---
------------------------------------0
-------------------------------0-----
-------------------------------------
-------------------------------------
------0------------------------------
-------------------------------------
----0---0----------------------------
------------------------------0---0--
------0------------------------------
----------------------------0-0---0-0

Generation = 3, Population = 150.
------------0------------------------
-----------0-0---------------------0-
----------0-0-0-------------------0-0
--------00-0-0-0-----------------0-0-
-------0-00-0-0----0------------0-0--
------0---00-0----0-0--------------0-
-----0-----00----0-0-0----------0---0
----------------0-0-0-0--------0-0---
-----0-0--10-----0-0-0--------0-0-0-0
-----0--0010------0-0----------0-0-0-
----010-1-0-0------0------------0-0-0
---0020--200-0-----------------0-0-0-
--0-0002-00-0-----------------0-0-0--
---0-00100-0-----------------0-0-----
----0-00--0-----------------0-0-0----
-----0-----------------------0-0-0-0-
------------------------------0-0---0
-------------------------------0-----
------0------------------------------
-----0-0-----------------------------
----0-0-0----------------------------
---0-0-0-0--------------------0---0--
----0-0-0--------------------0-0-0-0-
-----0-0--------------------0-------0
------0--------------------0---0-0---

Generation = 4, Population = 53.
-----------------------------------0-
-------------------------------------
--------0----------------------------
--------1-------0--0-----------------
--------0----------------------0-0-0-
-------------------------------------
----0-------1------------------------
-------0--0-0--0-------0-------------
----01------0----------------0-----0-
------------------------------------0
--------2----------------------0-----
---1--1----1--0----0-----------------
-0------01-----------------------0---
--------------------------------0-0--
---------------------------0-------0-
-------0--0--------------------------
-----0-------------------------------
------0-----------------------------0
-------------------------------0-----
-------------------------------------
------------------------------0---0--
--0-------0--------------------------
------------------------------0---0--
-------------------------------------
--------------------------0---0---0-0

Generation = 5, Population = 162.
----------------------------------0-0
--------0--------------------------0-
-------010------0--0-----------------
-------0-0-----0-00-0----------0-0-0-
-------010------0--0----------0-----0
----0---0---0------------------0-0-0-
---0-0-0--0020-0-------0-------------
-----00-00---00-0-----0-0----0-----0-
---01200--1010-0-------0----0-0---0--
----00--0---0----------------0-0-----
---0--00-0-0--0----0----------0-0---0
-00-02-0-20-00-0--0-0----------0-0---
0-00--021200--0----0-----------------
-0------00-----------------0---0-0---
-------0--0---------------0-0---0---0
-----00-00-0---------------0-------0-
----0--0--0-------------------------0
-------0-----------------------0---0-
------0-----------------------0-0---0
------------------------------00--0--
--0-------0------------------0-0-0-0-
-0-0-----0-0-------------------------
--0-------0------------------0-0-0-0-
--------------------------0---------0
-------------------------0-0-0-0-0---
