*** Life<Cell> 5x5 ***

Generation = 0, Population = 8.
0-0--
000--
-----
0-0--
-0---

Generation = 1, Population = 8.
1010-
---0-
-0---
-0-0-
-----

Generation = 2, Population = 13.
*---0
0--10
010--
01--0
-0-0-

Generation = 3, Population = 8.
.0--1
---*-
1*1--
-*---
-1---

Generation = 4, Population = 9.
.-1--
0--*-
***--
-.---
0*0--

*** Life<Cell> 5x5 ***

Generation = 0, Population = 16.
000--
00-0-
-000-
000--
0000-

Generation = 1, Population = 15.
-11--
-1-10
011-0
--10-
-1110

Generation = 2, Population = 16.
0-*-0
---*-
1*--1
00*-0
0***1

Generation = 3, Population = 7.
--.0-
-1-*0
-.--*
1-.0-
-...-

Generation = 4, Population = 10.
-1*1-
0--*-
1.-0*
-0.--
0...-

Generation = 5, Population = 11.
-**-0
1--.-
**1-*
1-.00
-...-

*** Life<Cell> 12x13 ***

Generation = 0, Population = 11.
----0---0-0--
---0---------
---0---------
-------------
-0-------0-0-
-------------
-------------
--------0----
-------------
--------0----
----------0--
-------------

Generation = 1, Population = 31.
-----0-0---0-
--01----0-0--
--010--------
-0-0-----0-0-
0-0-----0---0
-0-------0-0-
--------0----
-------0-0---
-------------
-------0-00--
--------00-0-
----------0--

Generation = 2, Population = 30.
--000-------0
-0---0-------
----10--0000-
---1---------
-------0-0-0-
--------0----
-0-------0-0-
------0-0-0--
----------0--
------0-0-1--
--------1---0
--------0----

Generation = 3, Population = 57.
--1-1------0-
0--1010-00000
-0--*-001--10
--0--0-00-0--
---0--0-0---0
-0-------0---
0-0---0-0-0-0
-0---0---01--
---------0-0-
-----0--1-*00
------00-000-
-------010--0

Generation = 4, Population = 34.
00-0*-0-00-1-
---*---0-----
----.--1*-0--
--------1----
-0--0--01-00-
---0----0----
---0------1--
----0-------0
-0-------1-1-
----0-----.-1
------1---1-0
-------------

*** Life<Cell> 12x13 ***

Generation = 0, Population = 11.
0---------0--
-0-----0-----
-------------
-------------
-------------
0------------
-------------
-------------
0--00--------
-------------
-------------
----00---0---

Generation = 1, Population = 32.
-------0-0-0-
--0---0-0-0--
-0-----0-----
-------------
0------------
-0-----------
0------------
0--00--------
-00110-------
0--00--------
----00---0---
---0110-0-0--

Generation = 2, Population = 35.
--0-----0-0-0
---0-0---0---
0---------0--
00-----0-----
-------------
0-0----------
1--00--------
1------------
01---10------
----10---0---
0--01--------
--01**1--0-0-

Generation = 3, Population = 53.
-0---0-0-0---
0-----0---0-0
1--0-0-0---0-
-10---0-0-0--
-00----0-----
1---0--------
-0-110-------
---0000------
-*0---10-0---
-0------0-0--
-0--*00----0-
001*.**00---0

Generation = 4, Population = 38.
--0-0-0-----0
1--0-0-0---0-
*---------0--
-------------
---00-----0--
-00-1--0-----
-------------
----11---0---
0*1-1--10----
0---10---0---
----*1-------
11-*...-10---

Generation = 5, Population = 69.
00-0-0-------
*0--0-0-0----
.0-0-0-0-0---
0--00--------
-0-1-0-0-0-0-
1110*00-0-0--
-00--0-0-0---
1000-*00--0--
-**--11*10---
1-00*-00--0--
-0--.-0-0----
**-.*..0*10--

*** Life<Cell> 4x4 ***

Generation = 0, Population = 6.
000-
0-0-
----
--0-

Generation = 1, Population = 8.
---0
1010
0---
-0-0

Generation = 2, Population = 6.
00-1
----
100-
----

Generation = 3, Population = 10.
11--
--10
*-10
000-

*** Life<Cell> 5x5 ***

Generation = 0, Population = 6.
0--0-
00-00
-----
-----
-----

Generation = 1, Population = 9.
1-01-
-1--1
00-00
-----
-----

Generation = 2, Population = 13.
-01*-
0*-0*
1--1-
00-00
-----

Generation = 3, Population = 13.
---*-
-.01*
-00-0
-1--1
00-00

Generation = 4, Population = 8.
---*-
-*-**
1--1-
-----
1--1-

*** Life<Cell> 6x6 ***

Generation = 0, Population = 4.
0-00--
---0--
------
------
------
------

Generation = 1, Population = 6.
--1-0-
0--10-
---0--
------
------
------

Generation = 2, Population = 11.
00-010
-0---0
0-01--
---0--
------
------

Generation = 3, Population = 13.
1--1--
01---1
-01-00
0--10-
---0--
------

*** Life<Cell> 6x6 ***

Generation = 0, Population = 4.
------
--0-0-
--00--
------
------
------

Generation = 2, Population = 13.
--10--
0-*-0-
01--00
--1-0-
--00--
------

Generation = 4, Population = 6.
--1*--
--.---
0.---*
--.---
------
--1-0-

Generation = 6, Population = 10.
-1**--
--*---
-.---*
-0.-1-
0----0
0-----

*** Life<Cell> 12x12 ***

Generation = 0, Population = 4.
------------
--0---------
----0-------
----0-------
----0-------
------------
------------
------------
------------
------------
------------
------------

Generation = 1, Population = 14.
--0---------
-0-00-------
--0010------
---0-0------
---010------
----0-------
------------
------------
------------
------------
------------
------------

Generation = 2, Population = 11.
----0-------
0-----------
--1-*-0-----
------0-----
--0-*-0-----
----1-------
----0-------
------------
------------
------------
------------
------------

Generation = 3, Population = 23.
0--0-0------
-00---0-----
00--.-10----
-----0-0----
-0--.-10----
--00-00-----
---010------
----0-------
------------
------------
------------
------------

Generation = 4, Population = 18.
------------
0-1---1-----
1---.---0---
0---0---0---
0--0*0--0---
--1-1-------
----*-------
----1-------
----0-------
------------
------------
------------

*** Life<Cell> 6x7 ***

Generation = 0, Population = 3.
0------
-------
--00---
-------
-------
-------

Generation = 1, Population = 10.
-0-----
0-00---
-0110--
--00---
-------
-------

Generation = 2, Population = 6.
---0---
-------
-1--10-
-------
--00---
-------

Generation = 3, Population = 23.
--0-0--
-0-000-
0-11*10
-00000-
-0110--
--00---
