*** Life<Cell> 11x13 ***

Generation = 0, Population = 11.
---0--------0
-------------
-------------
-0--------0-0
----------0--
--0----------
-------------
--0----------
-------------
--0-----0---0
-------------

Generation = 1, Population = 33.
--0-0------0-
---0--------0
-0--------0-0
0-0------01--
-00------0100
-0-0------0--
-------------
-0-0---------
--------0---0
-0-0---0-0-0-
--0-----0---0

Generation = 2, Population = 32.
-0-0-0----0--
-0--------0-1
---0------1-1
--10----0-*--
--------0---1
010-0-----1-0
----------0--
0---0---0---0
-------------
0-0-0-0-----0
-------------

Generation = 3, Population = 64.
01----0--0100
010--0---0--*
-0-10---00--*
-0*-0--01-.0-
00-00--010-0*
1-1--0--00*-1
-00-----0010-
-0-0-0-0-000-
--0---0-0----
-------0---0-
0-0-0-0-----0

Generation = 4, Population = 33.
-------00----
--1---------*
---*------1-*
-1.--00-*0.10
---1--0---1-*
*-*---0-1-.-*
-------------
01----0---1-0
----------0--
0---0-0---0--
-------------

Generation = 5, Population = 61.
--0---0110--0
-1-----00-00.
-0-.000-0--0*
0-*-01--.1.*1
00--0--0---0*
.-.--01--0.0.
-00-----0-1--
1*0--0-0-0*--
-0--0----0-00
-0-0---0-010-
0---0-0---0--

Generation = 6, Population = 53.
---0-01**1---
0*--000-101-.
-1-*-1101--1.
1-*-1--0*-..*
-1-110--1-11.
*-*--1*---.1*
---0--0---*--
*.-0----0-.-0
--------0---1
-1--0-----*--
----------1--

Generation = 7, Population = 76.
010-0-*..----
1*101-1-*1*-.
0*0*--*1*---.
--.-*1--.1*.*
0--**---*-*-.
.1*0--*01-.-*
---10-1000.--
..010-0010.01
00-00--01000*
0-00-0--00.00
-0--0----0*0-

Generation = 8, Population = 52.
-*-01-.*.11--
*.-1---0*-.0.
-.1.0-*-.0--.
-1.0.*-0.***.
---..-0-*0*1.
.*.101*1*-.1.
-00*--*---*0-
.*1-1----1.--
-1-1--------.
1-1---0--1.1-
----------.--

Generation = 9, Population = 56.
-.--*0.*.**--
.*-*1---.1.-.
0*-.-1*1.1--.
1-*-**--...*.
---*.01-.1.**
.*.---.-*-.-*
011.0-*-0-*-0
*.---00-1-*0-
-*----0----0.
-1---0-00-.-0
0-0---0--0.0-

Generation = 10, Population = 72.
-.--*1..***0-
**-*-01-.-.-.
-.-.0-****11.
*1*0..00*..**
01-*.-*0.-***
**.101*1*-*-*
-**.-0*---*01
*.1--11-*-*--
-*0--01----1*
-*--0--11-*1-
-0-0------.--

*** Life<Cell> 20x20 ***

Generation = 0, Population = 25.
--------------------
-------------00-----
-------0--0---------
-------------0----0-
0-------------------
-0------0-----------
---------------0---0
------------0-------
------0---------0---
--------------------
-------------------0
-----0--------------
----0---------------
--------------------
--------------------
--------0---0-------
--------0----------0
---000------0-------
--------------------
--------------------

Generation = 1, Population = 82.
-------------00-----
-------0--0-0110----
------0-00-0--0---0-
0------0--0-0-0--0-0
--------0----0----0-
--0----0-0-----0---0
-0------0---0-0-0-0-
------0----0-0-00--0
-----0-0----0--0-0--
------0---------0--0
-----0------------0-
------0------------0
---0----------------
----0---------------
--------0---0-------
-------010-0-0-----0
---000-010--------0-
--01-10-0--0-0-----0
---000------0-------
--------------------

Generation = 2, Population = 90.
-------0--0---------
-----------01*-10-0-
0----0--11--0-------
-0------0--0-0100---
0-0----0--0----0---0
---0--0---0-00----0-
0-----0------0--1--0
-0------0-0---0-----
----0---0-----01--0-
-----0------0-------
----0-0---------00-0
---0---0------------
--0---0------------0
-----0--0---0-------
----0---1----------0
---0000-----0-0-----
------0---0------0-0
-01*-*101-0-0-0-----
--------0----------0
---000------0-------

Generation = 3, Population = 163.
------0-00--00-00-0-
0----0-000-1**-*1--0
----0-00-*00100---0-
0----0--1---01-110-0
-0-------01-0--1----
----001--01-1-0000-0
---0-0100----1-0-0--
--0-0-001--0--1-0-00
-0-0---0100-00-*00-0
----0---0--0-0000000
-----0------0--011--
------0-0-------00--
-0------0---0-----0-
--0----010-0-0------
----1000*0----0---0-
--011--01-00---0-0--
-00-00--1010----0---
01-.-**---1----0-0--
-00-0-0-100---0---0-
--01-10-0--0-0-----0

Generation = 4, Population = 84.
0------0--0---------
-0------110-..1.-00-
---0--1--.-1--10---0
---------0--1-1--10-
--0-0-0---------0---
-0--11------*01-----
-------1--00---1-1--
-----0--*----0--1-1-
0-0-0-----1-1--.----
-0------1-----------
-----------------*-0
-0------10----------
0-----0---------0--0
---000------0-------
--------.----------0
----*0--*---0---0---
---0--------0--0-0--
1*1.0.*0-0------0---
---0----------------
---*0*--1-----------

Generation = 5, Population = 148.
------0---10--0--00-
--00--0-*---..**111-
-00-00-01.---0*10-0-
--000---1-0---*--*1-
----10-0-0---0-1--0-
0--0-*-0--1-*-*-00--
-0--0-1--011----1---
0-0---0-.0-0--1--0-0
-0-------0-----.0-0-
----0--0-00-0----0-0
---------0------1.--
--0---00*10-----00--
---00--000--0--0-00-
0-01-1-----0-0--0---
---0----.-------0-0-
----*100.0-010-----0
00--000010-0100---0-
***.-..1--1-0-------
00-1000010------0---
--0*-.00-0----------

Generation = 6, Population = 182.
--00-01000*1001----0
---1--10*101....***0
011--111*.0-11.*---0
----10-0*0-0-1.1-.*0
0-00---10-1------010
--0--.1100*0*0*0-1--
0----0*-0-*----1*1-0
---00010*-0100-01-1-
----0-001--01-0.---0
-0-0-00--11--0--0-0-
--0-0-0---0-0--0*.-0
-0--0011.-100-------
0-0-1---1-----0---10
--1*0-00100-0-0-1---
0--1--00.0--0--01---
00--.*1-.1--*---0-0-
---0-11---1--110-0--
....-..-10-01-0-0-0-
------1-----0--0-0--
0-1*-.--110-----0---

*** Life<Cell> 5x20 ***

Generation = 0, Population = 7.
-0--------0-----0---
0-----------0-------
--------------------
----0---------------
---------------0----

Generation = 1, Population = 19.
--0------0-00--0-0--
----------00-0--0---
0---0-------0-------
---0-0---------0----
----0---------0-0---

Generation = 2, Population = 24.
-0-0----0-0-1-0-0-0-
0-0-0-----1---0-----
-0--------0----00---
0-0---0-----0-------
-------------0-0-0--

Generation = 3, Population = 37.
--0----0--1---1----0
---0-0--00-0001---0-
0-0-0-0--0100--110--
-0-0-0-0--00----00--
0-0---0-----------0-

Generation = 4, Population = 24.
-0---00-----1-*0----
0-0-0---1---1---0---
-0--------*----**---
0---0---0-----------
-0--------00----0--0

Generation = 5, Population = 44.
-----1100--0*-.1----
------00-010*01010--
0--------0.00-0**0--
-0-0-0-0-0-0---0---0
--0-0---00110--0-00-

Generation = 6, Population = 35.
----0**11---.-.*-0--
0-------1---.-*-*-0-
---0-00-0-.1-0-..-00
--0-0---0-0-0-------
---0----11-*1001-11-

Generation = 7, Population = 45.
0--01**--0--.-.*0---
-0-00----0-0.-*0*01-
0---011--0.-0--..0-1
-0----00-0--1000-0-0
-------0-*1**--*-**0

Generation = 8, Population = 35.
--0-**.11110.-*.--0-
0---10--1---.0*1.1*-
-0------0-.-1--..-0*
--0-0-------*-----0-
-0-----1-*-**--*-*.-

Generation = 9, Population = 47.
00--*****--1.-**--10
--00--0---10*1**.*.-
-----1-010.1*-0..-1*
-0---0-000--*0-0--1-
0---0-0--.-**00.-..-

*** Life<Cell> 8x19 ***

Generation = 0, Population = 20.
-----00-0--0-----0-
------------0------
---0---0---------0-
0------------0---0-
0--0----0----------
----------0--------
----------0----0---
--0-----------0----

Generation = 1, Population = 57.
----011--00-----0-0
---0-0000----0-----
0-0-0-0-0---00--010
10-----00---0-0-010
100-0--0-00--0---0-
0--0----0010---0---
--0------010----0--
-0-0------0--0-----

Generation = 2, Population = 54.
----1*---110-0-0---
0---------0--10--0-
10-0-01--0-0---0-*-
*-0-------001------
*110-001-------0-1-
1-0-----1---000--0-
0--0--------00---0-
0-0-0-----1-0-0-0--

Generation = 3, Population = 77.
0--0*.1-0**1-10-00-
1--00-0--0100-10010
*10--1*00--1-0---.0
.-10---0--11*0-----
*--1-1-*--00-0---*0
-010-00--0-0-11-0-0
-00-----0-101-0--10
1--0-0---0--10-----

Generation = 4, Population = 54.
100-*.*-1..-0*-0---
-----0--0-*-1---1*-
*--0-*.11-0--1-00.1
*---0----0--.10--1-
.-1--*0*0--10----*-
--*---1-----0------
---0--00--*1--10-*-
------0------1---00

Generation = 5, Population = 77.
*-1-.*.-**.1-*---0-
-000-1----.-*1-0-*-
.10-0***-011-*01-.-
.01--00-0--1.-1--*-
.1*1-*1*1-0*--0-0.0
-0*----01-101110---
----001100.*--*1-*-
---0-01---101--00-1

Generation = 6, Population = 76.
.0*-*..0...-0*00010
---10--00-.0.*11-.0
**101..*11--0.1-0.-
*1*--11-1-1-.----*-
**.*-**.*--.---0-*-
1-.-0-11*0-------00
-00-11**11..1-.*0*-
--0-0---0-*1*1--10-

Generation = 7, Population = 62.
.1*0*..1*..-1.11---
1-0-1101--.-..--1.1
*.*1-...-*---.*1-*1
.-.0---0-0-1.-10-*0
...*0....-0.--0--*-
*0.-1-**.-1-1----11
-1--*-..--..*-.*1.-
--1-1-1-10*-**0---1

*** Life<Cell> 8x14 ***

Generation = 0, Population = 11.
-0--------0---
------0-------
-------00-----
--0--0--------
--------------
--0-----------
--0-----------
---0------0---

Generation = 1, Population = 30.
0-0---0--0-0--
-0---0--0-0---
--0--0-110----
-0-00-000-----
-----0--------
-010----------
-01-------0---
----0----0-0--

Generation = 2, Population = 37.
-0-0---0--0-0-
--0-01--1-----
-0---10--1----
0-011-11------
--0----00-----
0-*100----0---
0---0---------
-000-0--0-0-0-

Generation = 3, Population = 46.
0-0--00--0---0
-0-01-----0-0-
--000-----0---
-0--*0---0----
-0-0-0--100---
1-*-110000-0--
1--010--0---0-
-1-10-00-----0

Generation = 4, Population = 34.
-0---1100-----
------0---1---
-0111-----100-
01-1.-1--10---
-10-------1---
*0*-------0---
*-----001-----
-----011------

Generation = 5, Population = 56.
0-0-0**-100---
--001-1-10*-0-
---**1----*-10
1*-**0-10*1-0-
0*----0----0--
*1*1--000010--
*-1----1*00---
0---01*-------

Generation = 6, Population = 57.
--10-.*--1-00-
00-1*-*--1.-1-
00-..--1-1.-*1
-*-*.-1*-*-01-
1.--0-10--11--
.*.*11-111*-0-
*0*-100-.1----
11011-*-000---

Generation = 7, Population = 46.
0-*--*.01*-1-0
--0-*-*-1-.---
-11**-0*--.-.*
1*-..0-.-*1---
-*-010-1-0--0-
....-----*.0-0
.-.-*1--.-0-0-
-*1--1*-1110--

Generation = 8, Population = 45.
--.0-**1**----
0--1*1.-*-.0--
--*.*1-*-1.-..
*.-..1-*0**010
-*-1----------
...*---11*.---
.0.0*---*11---
1.*1--*-*-*1--

Generation = 9, Population = 52.
0-.10**-**01--
-0--.*.0.1*-1-
-1...*-*-*.-..
.*0*.*-*-**--1
-.-*10----1100
...*--0**.*---
.-.1*10-.*----
-**--1.-*1**0-

Generation = 10, Population = 48.
--.*-**1*.1*--
-101...1.*.0-0
0-...*-*-..-..
.*-*.*-.-*.--*
-.-.----1-*---
..*.11-**.*-00
.0.-.*--..100-
1.*--**1****10

*** Life<Cell> 7x6 ***

Generation = 0, Population = 6.
------
-0----
---0--
---0-0
------
0-----
----0-

Generation = 1, Population = 19.
-0----
0-00--
-00100
--01--
0--0-0
-0--0-
0--0-0

Generation = 2, Population = 14.
---0--
-----0
-1---1
0--*--
---10-
0-00-0
--0-0-

Generation = 3, Population = 20.
--0-00
-0-001
--010*
--0*-0
---*1-
------
0010--

Generation = 4, Population = 15.
---0--
0----*
----1.
-0-.-1
---**-
000-0-
1--10-

Generation = 5, Population = 22.
0-0-00
-0-0-.
01-1-*
0-0*0-
0--**-
--1--0
*--*-0

Generation = 6, Population = 21.
-0-011
0101-*
--0-1.
-01.--
100..-
-0-0-1
.0-.-1

Generation = 7, Population = 20.
-10---
1*1--*
01-1-.
--*.0-
*--*.0
--1--*
.11.0*

*** Life<Cell> 16x15 ***

Generation = 0, Population = 21.
-0-------------
--0----0-0-0---
--0----------0-
---------------
----------0----
-0-------------
--00---------0-
-------0----0--
---------------
---------------
---------------
0--------------
0-0-------0----
--0-0----------
--0------------
---------------

Generation = 1, Population = 59.
0------0-0-0---
--10--0-----00-
-010---0-0-00-0
--0-------0--0-
-0-------0-0---
0--0------0--0-
--110--0------0
--00--0-0--0---
-------0----0--
---------------
0--------------
100-------0----
1-100----0-0---
00---0----0----
-0100----------
--0------------

Generation = 2, Population = 59.
-000---------0-
0---00-0---0-1-
01--0-----01---
-01----0-0-0---
---0----0---0--
---1---0----0--
00--10----00---
-0---0---00---0
--00---------0-
0------0----0--
1-0-------0----
*---0----------
----1---0---0--
--0-0-0--------
--*-1-----0----
--1-0----------

Generation = 3, Population = 111.
-1-1-0-0---0010
101--1--0--1-*0
---01-----1*00-
--*-0-0-0-01---
-0-10--0----10-
000*-00---0-10-
1-1-*-00---1--0
-1-0-10-01-----
0-1100-0-00----
10-0--0-0-00---
---00--0-0-00--
.00010--0-0-0--
1-10-000-0-0-0-
-01----00-0-0--
-0*--00--0-0---
-0*-10----0----

Generation = 4, Population = 66.
-*0--1----0--*-
*1*0-*0--0---.-
0111--0--0-.---
--*----0----0--
-1----0-------0
-11.-1-0-0-0---
*-*-.-11-0-----
0--1----1--0--0
1-*------------
-10-0----------
1--1---------0-
.11-*--0----1--
--*-1---------0
--*---0-1------
01.0--1--------
0-*-*----------

Generation = 5, Population = 103.
-.--0*-----00.0
.-.--*-001---.-
-*--1-1-011.0--
00.---0-00-1-00
0*0----0-0-010-
---.0--1-1--1-0
*0*-.-*-010---0
-10-0-0---0-00-
*0*-0---0--0--0
1*-0-0-------0-
-00-0--0------0
.*-0*00-0--0--0
--*-*0000---00-
0-*-001--0----0
-*.--0*00------
10*0.00--------

Generation = 6, Population = 122.
-.-11*0000011.-
.1.-0.011--1-*0
-*11-0*01-**--0
-1.-0010-10*--1
-.110--10---*-0
---*-1-*0---*01
*1*1.0*11*-1--1
0*1-1-10--10110
.-.11-00-0---0-
-.----000--00-0
-11-10-----0--1
.*-1.1--100---1
1-*0.-------110
-0*---*01-0-0--
0..0-1.-1-----0
*1*1*---0------

Generation = 7, Population = 124.
-.0**.111--***0
.*.01.1-*-0-0*-
0*-*--.--1..0--
0*.0-1*1-*1.-0-
-.**-0-*--0-*0-
011.0*0.1---*-*
**.-.-.-**0*00-
-.--*1*1-1*1-*-
.0**--110---010
-.00---11-0-101
1-*1*--0-0-1-0-
*.-*.*00*-1-1--
--.-*000-0-0---
01.0--*-----1--
1..11-*--00-00-
*-***--010----0

Generation = 8, Population = 73.
-.1.*.---0-*..1
**.1-.*1*1-11.-
-.-*-0.0-*..10-
-..---.--*-.011
-...0--.--1-*--
-*-.1*1.*---.-*
*.*-.-.-..1.1--
0.1-*-.---.--.-
.1..-----------
1.11---*-0-0---
*-.-.--------1-
.*-...1-.------
-0*0.1--0-0-1--
-**10-.---0-*--
-..*--*---1--1-
.-*.*0-1----0--

Generation = 9, Population = 106.
0*-*..11-1-**.-
.*.*-***.*---.0
0.1.--.11*..*--
-..001.10*-.1**
-...1-0.0---*--
-*-*-**..1--.0.
*.*1*0.-..-.-01
1.*-.1.---.-1.-
*-..1--1-0-0---
*.**0-0.----10-
*-*1.-00-0-10-1
**-...-0.-1-10-
11.-.--0--1-*1-
0*.-1-.-10--*--
-*..1-*--0*00-0
.1.**10-1-00---

Generation = 10, Population = 100.
1*-.**---*-...1
...*-*...*01-*-
-*-.1-.**.*.*--
0..11*.--.1**..
-.*.*-1.10-0*00
-*1.-.**.-0-*1*
*..*.1.-..-.--*
-.*-.**1-1.--*0
*1*.*-------01-
*.*.--1.---0-1-
*1.-*0----0*1--
..-...--.-*0*--
***-.-01--*-.-0
-.*1*0.-*-0-.-0
-*..-1*01-.1---
.****----0----0

*** Life<Cell> 10x18 ***

Generation = 0, Population = 31.
00--0-------0---00
---------0-0------
0--0----0---------
--0-------0-------
----0-0-------0-0-
-0---------------0
------0--00------0
-00------------0-0
-------------0--0-
--0-0-------------

Generation = 1, Population = 70.
1100-0---0---0-011
-0-00-----------00
-0--0--0--00------
00--0-0-00-0--0-0-
-000---0--0--0----
0-0-0----00---0--1
--0--0-00110---00-
0110--0--00--00-01
-0--0-------0-0---
-0---0-------0--0-

Generation = 2, Population = 70.
**--0-0-0-0-0--1*-
--0----0-000-0----
--0--0----1-0-0--0
11--1---11-10----0
0-110----01-0-0-00
-0-0------1-------
------01---10001-0
1**1---------1-0-*
------0--000--10-0
010---0--------0-0

Generation = 3, Population = 96.
.*-0---0-010--0*.1
0-1000--01-1---000
0-10--0000*-10-001
-*0-*--0*--*10----
1-**-0-----01---1-
--01--00--*--0-00-
0-0--01*0--*-1---1
****0--0-00--*---*
---0-01001-10-*1--
1-10-010-000---1-1

Generation = 4, Population = 83.
.*01-00-0---001*.*
10---1-0-*-*-0-111
10*-0-11-1.-----1-
1.1-*---.--.--00-0
-0..0---0----0--*0
-01-00---0*0-1-1--
10-0-1*.1-1*--01-*
*...100---10-*-00.
-00-0-*--*--10*-0-
--*---*-0------*--

Generation = 5, Population = 94.
**-*--10----11-*.*
-110-*-10*-.010-*-
*1*-10*--**0-000*1
*.*-*000*1-.--11-1
-1..---0--1011-0.-
-1*1----01.--*0*--
--0--*.*-1*.011*0.
*...-1100---0.---*
-1--10*0-*--*1.-10
--*000.-----00-*--

Generation = 6, Population = 85.
**0*0-*--0-0--1**.
1**-0.---*-.----.1
**.0--.10..11--1.-
*.*-*111.-0.10-*0*
-*..00-100*-----.0
0-.*00-01-.00.1.--
1-1-0*..--**-**.1.
.*..-**-1010-.000*
------.-0.01.-*-*-
--*-1-.0-0-0---.-1

Generation = 7, Population = 90.
*.1.--.001--11***.
*..-1*01-*0*0-0-.-
...-10.-1***--0*.-
*.*0.*-*.-1.-1-*-*
1**.110*1-*--100.1
1-*.-1----.-1.**01
*0-0-...--..0...**
.*..-**----10.1--*
-10-10*-1.-**1*1.0
-1.--0.-0-010-0.--

Generation = 8, Population = 74.
.*-.00.-------**..
.*.0-.---.1.-1-1*-
.*.--1.1*...---**1
*.*1..1..--.1*-.-.
*...*--**-.0--11.-
--..-*-01-.0*...1*
*-1-0**.--..-.*...
...*-.*01-1-1.*--*
0*1-*-.-**-..-.**1
1**--1*01-1*-01*-1

Generation = 9, Population = 80.
..1.11.---1---***.
**.--*-10.-.0-0*.-
**.-1-**....1-0*.*
*.****-..--.**-.0.
.*.**--.*0.11-***1
--.*0.0--1.-***.*.
.--01...--..-..***
*...1.*--0---**--*
-.-0*-.0..0.*1...*
-.*0-**--0*.-1-*0*

*** Life<Cell> 12x18 ***

Generation = 0, Population = 41.
----0---------0-0-
---000------------
--00----0-0-0-----
---00---0--00-----
-----0--0-----0---
--------------0---
-00-0-0----0--0---
0--00-0-0-0-------
-0----------0-----
--------0---------
--0-0------0------
-0-00-------------

Generation = 1, Population = 87.
----1--------0---0
----110-0-0-0-0-0-
-01100-01--010----
----1--0-0-1-00---
---0--0010-00010--
-00-000-0--0-0-0--
-1101-100---0010--
-0-1--1-----0-0---
--000-0---00-0----
-00-0--0-0-00-----
---010--0-0-0-----
0-01-0-----0------

Generation = 2, Population = 76.
---0*-0-0-0-------
-00-**101--01-----
01----0-----*-0-0-
-000*----1---1----
-0--0--1*--1--*-0-
0-----1---01----0-
0**1-0*--0---1*-0-
01--00--0-0-1-1---
-0-1--1---1-------
01------0---------
000-*-0--0--10----
--1-010-0---------

Generation = 3, Population = 107.
-0-1*0101---0-----
--10*.---0-1-00-0-
1*11--1-10--*0---0
-1--*000--01--0---
-1--10-**--*0-.-10
10000-*-0-1-00-0-0
1.**1-*0--00-**-10
-*-11-10-01--0*00-
0------0-0*00-0---
-*-00--0--0-00----
-1--*0100-00*10---
0-*---------00----

Generation = 4, Population = 72.
0-0-.---*-----0-0-
00--..-011----1---
*.*-0-*0*--0.-0---
----.11-0-1-0--00-
----*--.*00.--*-*-
-11110.-1-*---0---
*...*-.---110..---
0*0----1--*0--.---
-0--------.---1-0-
-*-1--------1-0---
-*--*--11---.-10--
-0.101000-0-------

Generation = 5, Population = 103.
10-1.---*----01--0
111-..---*01-0-00-
*..--0.1.---.01-0-
0-0-**-0-1*1-101-0
-10-.00.*-1.00*0*0
-*---1.0*0.-00100-
*...*-.000**1..---
-.111-1-00*---.-0-
---1---0--.000*--0
0*-----00--0----0-
0*00.----00-.1-10-
01**1--1---0--00--

Generation = 6, Population = 84.
--0-.--0.-000-*---
***-..-0-*-*---1--
*.*--1.*.---.1--1-
111-*.110***0*---1
---0.11..-*.--.-.-
-*---*.-.-.-11*1--
.**.*-.---..-.*0--
0.**-----1.0-0.0--
00-*---100.---.00-
-.----0-1--1--0-1-
1.1-*----110*-1--0
-*..*10-00--0-1---

Generation = 7, Population = 86.
1-11.-11*-111-.---
*.*0..1--.0*-0----
...1--...-0-.*1---
---0*.-*-***-*0---
0---.--.*-*.--.0.0
1*-1-**-.-.1*-.-0-
*...*-.--0..1..11-
1...---1-**---.---
-10*0--*1-.--0.--0
-.0100-0*0-*-010*-
-*--*---1--1*--1--
-*.**-1-1---1-*0-0

Generation = 8, Population = 95.
*---.0--.--**-.---
...1*.*-1.1.11----
...---...--0..-0--
1-1-*.1.0..*-*---1
1---.11**0..00*-*-
**--1*.0.0***1.11-
*...*-*001..*..*-0
*.*.--1*0**010.000
-*1.--1.-0.001.0--
-.-*-1--.1-*1--1*-
1*-0.-1---1-.-1--0
0.***---*0--*-*---

Generation = 9, Population = 82.
.0-1*---.--**-.---
...***.--.-.-*11--
...1--...--1.*1-10
*---..*.1***0*-1--
--0-.-*..-..--.0*-
**11-..-.1...-.---
*..**0.-1*......-1
*.**10*.1..1--.1--
-*-*--*.--.1--.-00
0.-*--0-.*0.----*-
-*1-.--111--*1*---
1.***111.1-0.-.0-0

Generation = 10, Population = 98.
.---.---.-1.*-*0--
.....*.--.-*-.**-0
...*-1...0-*..--*1
.110...*****-*0*01
--1-.1.**-.*00*-*0
*.*--*.-**...-.110
*....-*0-**.....1-
*...*1*.****1-.---
0*1.--*.10.*0-.--1
-.-*011-.*1*1011*-
1.-0.01--*--*-*-00
-.***---.*--*0*---

*** Life<Cell> 13x12 ***

Generation = 0, Population = 32.
---0--------
------0-----
----0-----00
----0--0---0
-0--0--0----
----------0-
--0---------
-----00---0-
------0-00--
--00-00----0
-------0---0
--0--00--0--
--------00--

Generation = 1, Population = 83.
--0-0-0-----
---000-0--00
---01000-01-
-0-0-0010--1
0-0010010-00
-00-0--0-0-0
-0-0-00-----
--0-01-00--0
--00-0--11-0
-011-1--0001
---0--0-0001
-0-0011--100
--0--0001-0-

Generation = 2, Population = 75.
-0-010----00
-------10--1
-001*-1101-0
--0--1----0*
---1*11--011
----10010-01
01----1000--
--1-1*01--01
--1-0-0-*-0-
01**-*-01-1*
-----01----*
0-0--**-0---
------1-*01-

Generation = 3, Population = 74.
0--1-100001-
--0--0------
011-*0**1*1-
--100*0100-.
---*.----1-*
00---1-*----
1*---0*-110-
0-*--.--0--*
0--01-1-*--0
1-**0.-1---*
-0-001-----*
---00..-1-00
0-0---*-*-*0

Generation = 4, Population = 67.
-0--------*0
--1---0-----
1-*1.-..*.*0
0--11.1*11-.
00-*.-1--*-.
--001*0*--01
*.--0-*0--1-
-0*-1.-1---*
-01----0*10-
*1..1.----1*
--01-*100--*
00---..0*--1
----00.-.-*-

Generation = 5, Population = 72.
0-----0--0.1
0-*--0-10---
*-*-*-*.*.*1
---***-.*--.
-10..--1-*-.
--11*.-.0--*
..---0.111*0
--*-**---00*
-1-0--1-*--0
*-..-*0----*
-01*0*-1-0-*
11-00..-*1-*
00-011.0.0.-

Generation = 6, Population = 69.
100-------.-
--.0---*--0-
.-*1.-*.*..*
001.**-.*-0.
0*-..11--*1.
----*.-.10-*
..-001****.1
--*0**-10-1.
--1--0*-.---
*1..-.--101*
0--.1.1-01-*
-*011..0.*-.
----**.-.1*0

Generation = 7, Population = 68.
*-1----0--.-
00.10--*-0--
.-.-.-*.*.**
-1-.*.1.*11*
-.-*.-*10.-*
00--..-.-10*
..---*.....*
-0*1..---0-.
0-*---*-.1-0
**..1.-1-1-*
101.**-1-*0*
-*--*.*-..-*
-00-**.0*-*1

Generation = 8, Population = 77.
*0--1-0100.-
-1**10-*0--1
*-*1*0*....*
0-1...-..-*.
0*0..1*--.1.
1111..0*-*-*
*.000....*.*
-1**..0-011.
1-.-10.-.--1
....*.-*--1*
--*.*.1*-*-*
-.01...0..0.
0-1-***1.-*-
