*** Life<Cell> 6x29 ***

Generation = 0, Population = 20.
------0-0---------------0----
----0-0---------0-0-------0--
---0-0-----------------0-----
---0----0-----0--------0-----
--------------------------0--
----0---------0--0---------0-

Generation = 5, Population = 84.
00-1..--001-10--0000*01.-0*0*
-0*-0-.-*0*-10-01-1010--*--*-
-*-.-01-.-0---0-0-01---1*1-1-
-1-----*-------00.*-0-0---.10
0--.0110-0--00--0000----.-*0-
-0-..-1000-00**.-1--0---00-1-

Generation = 10, Population = 74.
-10****--..011*1.*.****.0-.1.
0.*110.-.-..-0-..*.*.*1**--*1
.*1.-..-*1--*--1-0.*-*-....-1
-**--...0-1-1.-.**.*-.---1*..
.--..-.-..-1---0*.-..1.**0..-
00..*-..-*1****..*--11.*-1*.-

Generation = 15, Population = 67.
........*****.**.**.....11.*.
0..**0..*.....1.**.**....-..*
...*-.*-..-*.1*.--**1*-*.....
**..*..*1*-...0.*.*.1.*-*..**
*-.*.-.*.*..1-0...1*.....-.*-
-*...-*.-..*****...-...***..1

*** Life<Cell> 11x14 ***

Generation = 0, Population = 18.
--------0-----
-------------0
0----------0--
-------0------
---0-----00--0
----0---------
---0-----0----
-----00-------
--------------
------0-----0-
0----0--------

Generation = 1, Population = 51.
-------0-0---0
0-------0--00-
-0-----0--0-00
0--0--0-0000-0
--0----001100-
---0-0----0--0
--0--00-0-0---
---00110-0----
-----0------0-
0------0---0-0
-0--0-------0-

Generation = 2, Population = 56.
0-----0-0-00--
-------0---1-0
0-00----0-1---
----00---1---1
00-0-0-11*-110
--0--1-0------
-0-0-1-0-010-0
---1--*10---0-
0--0-1---0----
----000-0-0---
--00-0-0------

Generation = 3, Population = 79.
-0---0-0--1-00
--00----0-0*--
--11-0---0----
-0001-000*-0-*
110-0----*-*--
00-00-----0-0-
0-01-*0-01-10-
000-01.*100---
-0010*000---0-
0-001-10-0-0--
-011010---0---

Generation = 4, Population = 61.
0--00----0*011
----0----0-*-0
--**0--001---0
---1-01--*-1-.
-----001-*1*-0
1-----0-00--10
-----.10---*-0
-11--*..-11---
0--*-.1--00--0
--1-*-*-0-0---
-1**1---------

Generation = 5, Population = 75.
-001-0--0-.1--
0-00-0-0--0*0-
-0*.---1-*1-01
---*1--0-.0*0.
1--00--*1.-*11
-0------1--0*1
000--*-1---*01
-**-0*.*1-----
--0*-.*0--100-
0-*-*-.--010-0
0**.-10-0-0---

Generation = 6, Population = 74.
-11--10--0**--
--1--1-1---.--
-1..000--**-1*
00-.-01--.-.1.
--0--00*-*-.--
11-001-0*001.*
1--1-*-*0-1*1-
-..11*..*11--0
0-1.0.*----11-
10.0*-.0-1--0-
-.**-*1--01--0

Generation = 7, Population = 73.
0*-10-1-01*.1-
-0*0----0--.00
-**.1---0..--*
1--.-1*--*0***
-1---11.1*-*11
-*0--*01.11-..
*-0--.-.1-*.*1
-**-*...*--00-
10-.-.*-0--*--
-1.-.-.--*--1-
0***1**-0-*0--

Generation = 8, Population = 72.
1*1-1-----.**-
-1.-0-01--0*--
-...--011.*01.
-00.--*00.-...
-*--0**.*.-.*-
-.-00*1*.---..
*--10*1.*1*.**
0.*-....*1----
*1-.0..-1-1*1-
1-.0*0*-0*-0-0
1***-*.--0*1--

Generation = 9, Population = 69.
***-*110--***1
-**01----0-.0-
-**.101--.*1*.
1-1.1-.11.0.*.
1*---...*.-..1
1.0--.-..11-**
.0--1.-..**...
-.*-.....-10-0
**-.1..0--***-
-1.-.1*--.--1-
-***1**---.-00

Generation = 10, Population = 65.
*..1*--10-****
-..-*1-10-0.--
-...*-*-1.*-**
*-*.*-**-.1.**
*.0-0..**.-..*
*.-00.-.*---**
.-01-.-......*
0.*1.....-*-0-
**-.-**-10*..-
--.0.-.--.1---
1***-.*0--.1-1

Generation = 11, Population = 63.
...**-1---***.
0..-.*0-1--.--
0...*0.-*.*-**
.-..*-*.1.*...
*.10-.*.**1*..
..0--.-**1-1**
.0-*-.-....*.*
1..-*....-*---
**-*1..-*-*..-
--.1*1.00.*--0
****1..10-.---

Generation = 12, Population = 62.
....*1*101.*..
1..0..--*0-.-0
1...*-.1*..-..
.-..*1*.-...*.
.*-1-**...*...
..10-.-*.-1*.*
.-0*-.-.**.*.*
*..1*....1*--0
**-.*..-*-**.0
--.*.**-1..01-
.**.-**--0.--1

Generation = 13, Population = 59.
....*-*-1-*...
*..-..01.-0.0-
*..**-****.-..
.0.*.*..1.....
..1*0..*..*.*.
.*-10.-**--*..
.0-.-.-.*..*.*
*..-*....-.00-
**1....0*0...1
1-.*..*-*..-*0
..*.1**1--.1--

Generation = 14, Population = 67.
.....-*1--.*..
...0*.1-.-1*-0
*****0...*.-..
.-...*..*.....
.**.-***.*.*..
.*1--.1**1-*..
*10*-.-**.**..
*.*1...*.1*-10
*.**...1*1.*.*
*-.**..-.*.-*-
...*****--.--1

Generation = 15, Population = 54.
.....1**1-***.
.*.-..*-.-**--
.**..-*..**1..
*-.....****...
.**.0*...*....
..*--*-..-1**.
**-.1.-.......
*..**.*..-.-*-
*......-.*.*.*
.1.....-.**-*0
...*.**.00.---

Generation = 16, Population = 57.
.....****-*.*.
.**-...-*-..--
***..0*....-..
*0.*.***...*..
.***1**.......
*.*10*1..-**..
**-.*.1.....*.
*..***...1.-*-
**.....-.*.*.*
.-.....-...0*-
........1-*-01

Generation = 17, Population = 44.
......***-....
*.*0...-*0..0-
...**-.....1..
.1.....*......
....*.....**..
*..*-.**.1.*..
*.-...*...*.*.
..****...**-*-
**..*..-...*.*
.1.....-.*.-.0
........--.1-*

Generation = 18, Population = 51.
.......**-....
..*-*..-*1..-0
.*.**0..*..-..
.-.**.....**..
......***.**..
....-***.-..*.
.*0...***...*.
*.****...**0*-
**..**.-.*.*.*
**.....-..*-.-
........-0.--.

Generation = 19, Population = 45.
.......**-....
..*0**.-.*..0-
.....1..*.*1..
.1**..*.*.**..
....*...***.*.
....0*...-..*.
.*-.....***.**
*......*.*.1.-
.....*.-.*....
**.....-.**-.0
........1-.--.

Generation = 20, Population = 48.
...**...*-....
...-***1.***-0
.*...****..-*.
.*****..*...*.
..*.*..**.*.*.
....-*...-..*.
..0.....***.**
...........-*0
**.....1.*....
.......-***0.-
........--.--.

Generation = 21, Population = 46.
...**.***-*...
...-...-.***0-
.*........*-**
.*..........**
.**...****..**
...*-..*.1*.*.
..-......*....
.*........*1*-
.......-.*.**.
.......-***1.-
........10*1-.

Generation = 22, Population = 42.
.......**1*...
...0...1*...--
.........**1..
**.....***....
.**...**.**...
..*.0.**.*****
..-.....**..*.
.........*.**0
.......-*.....
.......0...*.-
........-1.-0.

*** Life<Cell> 14x10 ***

Generation = 0, Population = 22.
---0------
------0---
-------00-
--0-------
----------
---------0
0----0----
0--0------
----------
----0-----
0----00---
-0--0-0-0-
---------0
-00-----0-

Generation = 4, Population = 54.
--------0-
--0---1-.0
1---0*--1*
---0--*---
---1------
1---1110--
*-*-011*10
*---.*011-
0--------1
10**-----0
*0--1*-..*
---*01--1-
--1--*-*-0
.1.*11----

Generation = 8, Population = 55.
*--0--1-*-
----01*1.*
10-1**--..
**1---.-.-
-0-*01-11-
*----..0-.
.0.1-11...
.-1*..-..-
1-.-*0.0*.
.-..--*0.-
**--..1..*
-11...*-.*
*-*.0.-.1-
*-.*-*-1*-

*** Life<Cell> 16x12 ***

Generation = 0, Population = 12.
----0-------
--------00--
-----0------
---------0--
------------
--0---------
------------
------------
-0----------
------------
-----0----0-
----0-------
------------
-----------0
0-----------
------------

Generation = 4, Population = 43.
0----1--01--
--1-00---*1*
-0--.-------
-----1-----0
-0--0-------
0-----0-10--
----------0-
----0----0--
-0---0------
--0--------0
10----0--10-
1-------1---
-1----------
-------0-0--
0-0-10----0-
----0------0

Generation = 8, Population = 52.
-*.--.-0.*--
*01-.--**.1.
**0-.-10*-0-
-0--0*.0.1-0
----01-----1
----0-*-..01
0---*---.1--
--------.---
----01.--.--
--------01--
*1*--.1.-.--
*-0------*-0
-.-------1--
--11.1------
----.*1-0-0-
----.-------

Generation = 12, Population = 91.
0..01**.*.10
.01-.-1.*...
**0-.-.-.1*0
**0-0....*1.
0.-.*-.-1-*1
-0*-0.....*-
000-.-*0*---
-10-----.-0*
*10*...-1.--
-10-01---.1*
**.11.1...11
...-001--.-0
-**0-*--**-1
--.***-0-*0-
-0-*..**-0*-
01*-.-01-1-0

Generation = 16, Population = 80.
0.***...****
.--*.**....*
..**.-*-...-
..-1..*...**
.**..1*-1-..
1-*0*...**.*
1*...*.-.*-1
*.----.*.0*.
**0....*1*--
1*0--.--**1.
**....*.*.1.
*.**-*....*0
*..--.*-*.**
1-**..--1*0*
-1*.....-..-
..*-.----**-

*** Life<Cell> 7x20 ***

Generation = 0, Population = 17.
----0------------0--
--------------------
--------0------0----
-0----0-------0-----
-----------0---0----
-----0---0-------0--
-----0-------00---00

Generation = 4, Population = 39.
0----------0-0-----0
-----1---0-------1--
-----1.----*101--10-
-01--1------------0-
----0*-1---1-**0-10-
-0-----------1.--0-*
-1---*--1-00*.*---*-

Generation = 8, Population = 59.
--*--1---10*--10--*-
---0-*-0-0---0---.-*
*--0.*.-1.-.*-.1-*01
1..*-*-.---*11*-1-0-
--....01.-..-..*---1
1..11--1---.0*..0.0.
0.1-*..1**.1****11**

*** Life<Cell> 13x11 ***

Generation = 0, Population = 11.
-----------
---------0-
-----0-----
-----------
--------0--
----0-0----
-----------
-0--0------
-----------
-----------
----0------
0----------
-----0---0-

Generation = 5, Population = 75.
-----1-0-0-
-0-01**100-
010--00-1-0
010010---00
000011.---1
--.0-0--.*-
0000*-0-100
0-.---00*--
-0--1*-0-10
1---.--0---
1-1--.10*10
-1*000--00-
-1-1*.0----

Generation = 10, Population = 71.
-*0-0.*.1-1
1.1*1..*.01
0.0*.-0**-*
.-0-..-.-**
-..-..*000*
**..-1*0**-
-0--*-.1.11
*..11--..--
-0-*.*-1.*.
*1--.-1-10-
*-.10**.*..
-1...*--.01
*****.0**.-

*** Life<Cell> 11x10 ***

Generation = 0, Population = 14.
0--0------
--0-------
---------0
-0-0------
----------
---------0
0------0-0
---00-----
-----0----
0---------
----------

Generation = 1, Population = 36.
-0--0-----
00-------0
-000----0-
0---0----0
-0-0-----0
0------001
-0-00-0--1
0-011--0-0
0--0--0---
-0---0----
0---------

Generation = 2, Population = 41.
-100-0---0
11-00-----
0--1---0-0
-000-0---1
0------0--
-0--0--1-*
0-0----0--
101--00--1
1--1-----0
0-000-----
-----0----

Generation = 3, Population = 57.
----0-0-0-
--011--0--
10---00--1
01----0-0*
-00000010-
0--0-00--.
1-1000-10-
*---111-0*
--0*-00-01
1-111----0
0-00--0---

Generation = 4, Population = 43.
--0-1--0-0
1-1---0--0
---1-1---*
-*-000-0-*
0--1-1----
1-0--1-1-.
--*111-*--
.0-1---01.
-0-.-----*
*-*-*----1
1----0-0-0

Generation = 5, Population = 50.
011--0---1
--*-1---0-
10-*0*-00*
-.-1-1---.
1--*0-0--0
*-10---*0.
1-.*---*--
.11*-11-*.
-1-*0--0-*
*0.-.--00-
*00------1

Generation = 6, Population = 56.
1--0--0---
-1.1*0--10
*10.1*-11*
-*0--*-00*
*0-.11----
*-*1---*1.
*-..11-.0-
*--.1**-*.
--0*1--1-*
.1.1.-0-11
*110---0--

Generation = 7, Population = 47.
--11---001
1*.-.-----
*--.-.---.
0.-10.--1*
*-0.*-0--0
*0**0-0*-.
*0..---.-1
.11.*.*0**
1-1.--0--*
**.-.0--*-
**--0----1

Generation = 8, Population = 51.
1-**1-01-*
-**1.--010
*--.1.--1.
-.-*-*00**
*01..-1--1
.1..---*1.
.1..---.-*
.--*.**-.*
*-**1-1-0*
..*-.--0*1
**10------

Generation = 9, Population = 54.
-1..*-1-0*
1..-.---*-
.-0.-*01-.
-.-*0*1-.*
*1*..-*10*
.-..---***
.**.-10*-*
.1-*.**0.*
.-*.*0*1-.
*..1*--1.-
.**10--001

Generation = 10, Population = 42.
--...----*
-*.-.0--*-
.1-*-.1*-.
0.0*-.*0.*
.-***-.*1.
*-..-10...
.**.1-1.0*
.*-*...1..
.-*..1.*0.
...-.---.1
.***-00--*

Generation = 11, Population = 49.
-1...0---.
1.*1.---*-
**0*1*-.-.
-.-.-*.1..
.1*.*-..*.
.-..0*-..*
****-1*.1.
.*-***.*.*
.-*..-**1.
.*.1*-01.*
..*.-1100.

Generation = 12, Population = 48.
--*..-1-0.
*..-.--0.0
*.1.-*1.1.
0.-.0**-..
.*.**1*.*.
*-..-.-***
**..-*.*-*
*.-......*
.1...-..**
.*.**01*.*
..**-**11.

Generation = 13, Population = 48.
11...0-1-.
...-.00-.-
*.-.-.-.-.
1.0.-..1..
**.*.*..**
*1*.0.-..*
**..1.**1*
*.-......*
***.*1**.*
.*.*.1*..*
..**0..**.

Generation = 14, Population = 44.
**...11-0.
**.-.-1-.-
.*1.-.1.-.
-.-.-..-*.
...**...**
.-..1.0...
..****.*-*
..1**....*
*.****.*.*
*....-...*
..**1****.

Generation = 15, Population = 38.
**...*---.
...-.--0.-
***.-.**1.
-.0*0..1**
...***.***
.-*.-.-*.*
..*...*.-.
..*......*
..*..*...*
.....-...*
...*-****.

Generation = 16, Population = 34.
......11-.
..*-.0-1*-
.**.1.*.-*
1.-.-..*..
.....*....
.1*.1*-*.*
.***....-.
.***......
........**
....*-.*.*
....-.***.

Generation = 17, Population = 35.
......*--.
.**1.---*-
.***-**.-.
-*0.0**...
.*..**..*.
.-..**-...
*.......-.
.*.*......
..**....**
.....1*..*
....1.***.

Generation = 18, Population = 37.
..*....10.
.*.-*0-1.0
*...1.**1.
1.-.-..*..
.**.......
.1..**0...
....*...-.
.*.*......
..***...**
...****..*
....-.***.

Generation = 19, Population = 40.
......*-1.
.*.1*11-.-
**..*...*.
*.0.0.***.
***..**...
.*****1...
..***...-.
..........
........**
..*...*..*
....1.***.

Generation = 20, Population = 27.
....*.*--.
*****--1.-
*.......*.
..1.1.*.*.
*.........
*.....-...
.*......-.
...*......
........**
.....**..*
....-****.

Generation = 21, Population = 27.
.**.**.--.
*****1--.-
*...**..*.
.*-.-..*..
.*........
**....-...
........-.
..........
........**
.....*...*
....1*.**.

Generation = 22, Population = 27.
*....*.--.
*....*1-.-
*....**...
**1.1.....
.**.......
**....-...
........-.
..........
........**
....****.*
....***.*.

Generation = 23, Population = 25.
.....**--.
**..*.-1.-
*...*.*...
*.-*-*....
...*......
***...-...
........-.
..........
.....*****
....*....*
....*...*.

Generation = 24, Population = 31.
.....**--.
**..*.1-.-
*..**.*...
..1*1*....
*..**.....
.**...-...
.*......-.
......***.
.....*****
....*.*..*
..........

Generation = 25, Population = 26.
.....**1-.
**.**.-1.-
*.....*...
.**.-.....
.....*....
****..-...
.**....*1.
.....*...*
.........*
......*..*
..........

*** Life<Cell> 5x14 ***

Generation = 0, Population = 21.
-----0----0---
-000-----0000-
----0---------
---0000---0-0-
------00000---

Generation = 5, Population = 39.
0-0**1011-*-1-
.*1*-010*.-11-
*---1*-*-.-0--
--**.1-1-.1100
0---0----00***

Generation = 10, Population = 26.
---...**1...*0
*...-1.-.**---
.1*-*.**-*-0--
-*....*.-.11.-
**-1*----..**.

Generation = 15, Population = 24.
---.......**..
....-**-*..--1
.*.1***...**-*
1.*....*.*...1
.***..-11.....

Generation = 20, Population = 25.
0*0....**..*.*
*...-..***.*.*
.*.*....**..0*
-.*.....**....
......1**.....

*** Life<Cell> 10x25 ***

Generation = 0, Population = 24.
-------0---0-------------
---0--0----0-----00------
-0----------0--0---------
--0------------0----0----
-------0-----------------
------------------------0
-------------------------
-0---000-----------------
-0----0--0---0-----------
--------------0----------

Generation = 4, Population = 64.
-*-0------1.-------------
--.1.-1---0--000-1*--00-0
-1-.-1-01----*.-0--1-----
00---1-1---*----0--0----0
-*-1--11-0---0-.---------
---1--*----0--1--00-0-0--
-.-----.----1--1---------
---0-.*..110--00----0----
--1---1---0------0-------
-1---*10--0-------0-----0

Generation = 8, Population = 81.
-*--01-*-0..**--*--*-----
-..*.1-*---*0-0-....--.--
0.-.-.-0*--*0*.1-1-*0--1-
.-..-.---0-.---.-1--1-01-
0.1.1.--001--0-.*--------
--*..1.*0-10---1.1.------
1.*01**.-.-0-0-.0--------
11-*-.**...10-.0--------0
0---00.-*--------0---0---
--0-1..11-*.---0-00-0-0--

Generation = 12, Population = 108.
1.11---*0-****0-..1**----
......1*-*-.10*-....--*--
-.1...-0.--.**.*-.-.-10.1
*1..-*-**1*.---.-.*..0*-1
**..1.-*0----1.*.---*01.-
-**.**.**-*0--*-.-.-*-*--
.*.--**.-.---1*.-*001--1-
.*1.*.****.1-*.01-*-0-00-
*1..-*...1010*----1------
1.1-*...1-.*1--011**-10-0

*** Life<Cell> 6x20 ***

Generation = 0, Population = 10.
-0------------------
-------0----0-------
-----0-----------0--
------0---------0-0-
-----------00-------
--------------------

Generation = 4, Population = 30.
-0---------00----0--
---0--*01--01---0---
-------.-1---1-----0
--0-------1-.-*---0-
-0-----10-.*1.-11---
------01----0---0-0-

Generation = 8, Population = 41.
----01---1-0*-0-----
--.1*..*.-.-1**-1-0-
-1--00-.**--*-0-11--
0----0-1----.-*0-0*-
-0-*00---...-.*.1*-*
-----..-----.0*0----

Generation = 12, Population = 49.
-11.-..0.--*.-.----0
0-.**...*-.0..*1.--0
--00---...-*.1-1*1-0
-1-.*-01--*-.-.1-.*0
-0-.101**...-.*.*.**
011.****----..**1---

Generation = 16, Population = 46.
****-..-.1...-.-0*0.
*-...*..*.*-.*.***-0
-**--*....-..--.**11
-.1**--1--*0.-..*..*
1--..1-.***.1.....*.
*...**..0-0-.*..*..-

Generation = 20, Population = 39.
**.**..-.1...-.--.-.
*.*.*...**....**..1.
*..--*....-..-**..-*
-.1***--.-.*.*....**
*1***.**....-*......
***..*..-0--.......-

Generation = 24, Population = 42.
.*.....-.....-*.-.1.
.**...*..*.....*..-.
.**-..***.1.***..*1*
-.**..*1.0**.**...**
.**..*..*..*........
......***-***......-

Generation = 28, Population = 34.
.......-.....-.*0*-.
...*.**.*......***1*
...0.**..**.........
-.**..*1.-..........
..***.**..*.........
..***.**.1*........-

*** Life<Cell> 6x10 ***

Generation = 0, Population = 16.
-0----0--0
-00-------
--00-00---
---0-0----
-------0-0
---00---0-

Generation = 2, Population = 27.
-*0-01-11-
1---01----
0--0-0*-0-
--0-0*-10-
--00--10--
-01-*---0-

Generation = 4, Population = 33.
-*-0-10**1
*-100.--0-
*-0--*.---
-1-1*.0101
-0-*-0*--0
1*1*.1-0--

Generation = 6, Population = 36.
-*-*1*0***
.1-**.1-*0
.-*11.*11-
-.*-..0---
00*.--*-0*
.*1***101-

Generation = 8, Population = 31.
-*-*..-...
.**.**--.0
.0*.1..1-0
1*.1..010*
***.1-*--.
*.*****--0

Generation = 10, Population = 24.
-*-**.1**.
*.....-1.*
.-.**...-0
-..1*.0*-*
....*1.0-*
...**.*---

Generation = 12, Population = 20.
-.1...***.
...*..-..*
.-.**...*0
-..1..-.0.
....**.*0.
....***-1-

Generation = 14, Population = 15.
-.1*...**.
..*.**-..*
.1.......-
-.....1.-*
...*.**.-*
.......-.-

Generation = 16, Population = 15.
-.-***.*..
..*.*.-*..
.1..*....-
-...*...1.
.....**.**
.......-.-

*** Life<Cell> 6x21 ***

Generation = 0, Population = 21.
0---00--0---0-0----0-
0---------------00---
--------------0---0-0
--0-----0--------0---
---0-----0---0-------
--0--------0---------

Generation = 1, Population = 50.
10-01100-0-0---0000-0
10--00--0---0--011-00
0-0-----0----0-000---
-0-----0-----00-0---0
--0-0-----000-0--0---
-0-------00-00-------

Generation = 2, Population = 51.
---1**-10-----0-11101
*-------1-----01-*01-
1--000--10---10---00-
--0-0-0---00---010-0-
-0---0-0------10--0-0
0---0---01-0-1---0---

Generation = 3, Population = 58.
1-0**.-*-0---010***1*
.0------------1*1.-*-
*0-111-0-1-00*-000-10
0--01---0-11000--1-1-
----0-0--00---*--0-0-
---0----1*-----00---0

Generation = 4, Population = 52.
-01*..0.--0-01*1.****
.1---0-----000-.*.-.0
*---**--1-0-1.--1--*1
1-0-*-0----*11-------
0--01--00---0-*--1-1-
--0---00**-----11----

Generation = 5, Population = 58.
1--...-.-0-0-********
**-0-1--1-01---.*.0.-
*-01*.-0-----.-0*00*-
---0.0-----.-*--11--0
1001-00-----10*-----0
00--0011.*0-0--**--0-

Generation = 6, Population = 56.
*--...-.--01-.***.**.
*.010-0--01-001...-.0
*01-.*0---00-.01.11*-
-00-.1-0---.-*------1
-1--11---000-1*--1--1
----11**..1-1--*.00--

Generation = 7, Population = 62.
.01*..0.---*-.**...*.
*.--111011*-1-*...-.-
*1*-..-----1-.-*.*-*1
-1-0.-0-00-.1*00--0-*
1*-1-*--01111-*-0*-1*
-0-0-**..**0---.*-100

Generation = 8, Population = 56.
.1-**.1.00-*-***.....
*.--*-*---*---*.*.-*0
***-*.-0----1.0**.1*-
1-01*------.-.1--1--.
**---*00--**-1*0-.--.
-1-1-**.*..---0**0*1-

Generation = 9, Population = 53.
.--**.**110.-***.....
*.0-*-*-1-*-1-..**-*1
*.*1*.--1-01-.1.*.**-
----*-0---1*1.-0---1.
*.---.11-1..-*.--.01.
-*---*.....0---.*-**0

Generation = 10, Population = 48.
.--**.*.*--*-****....
..1-.-*0-1.1--..**0**
..*-*.-0*-1-1*-.*...-
--0-*-1-0--.**----0-*
..--1.-*--..-..00*-*.
-.0-1.*....-11-..-*.1

Generation = 11, Population = 52.
.--*.**.*-0.-.***.**.
..*-*1*---.*--....-*.
.**-..0-.1-1-*1.*...-
-11-*---101***10---1.
..-1-.1*--..-.*1-*-.*
-.--**.....0**0.*-**-

Generation = 12, Population = 53.
.--*..**.--.-..*..**.
.**1**.011.*10..**-*.
...1*.10**1-1.-.....-
1--1.1--*1-*..---10-.
..--1.**-1..-..-0*-.*
-.--***....1**-.*0**-

Generation = 13, Population = 57.
.1-*.***.1-.0...****.
...-...1*-.**1..**0*.
.*.*..*1..*-**-.*...-
-11*.-10.*1*..----11.
..--*..*0*.*1..1-.0..
-.-1*.**...**.0.*1**-

Generation = 14, Population = 52.
.--...**.-0*1*..*..*.
...-**.*.-*..-.*..1*.
.*.*...*...-.*1.*...-
1--**1-1..*..*-011-*.
..01*...-*..-*.--.-..
-.0*****..****-**-**1

Generation = 15, Population = 49.
.--..***.1-*-.....**.
...-**.**1*..-.*****.
..**...**..-.**....*-
---..*-**...**11**-..
.*--...*0*..-*.--.0.*
-.-..**...****-..-.**

Generation = 16, Population = 51.
.--.**.*.*0.1...*..*.
...-**...**..1****..*
...*.*.....-*......*1
-11...-.....*.*-**-*.
..0-.*..1**.1..10*-.*
-.-...********0..-.**

Generation = 17, Population = 56.
.--.***.**-*-**.**...
...-....***.*******.*
..**.*.....1*......*-
1*-**.-..*..*..1.*-*.
.*11..*.-...-..*1*0.*
-.0...**....**1**1.**

*** Life<Cell> 12x13 ***

Generation = 0, Population = 15.
---------0-0-
-------0-----
---------0---
-0------0----
-------------
--0------0---
---0-----0---
----------0--
-------------
0-------0----
------0------
0------------

Generation = 3, Population = 81.
-0---00-010--
0-0-0-00*10--
-000-0-*0----
-0*-001---10-
00-1--0-00-0-
1-0---0-*-*-0
01-----1-1-1-
-0---000010--
0-0-0010010-0
-0--00*000---
0--0-000*0---
---00--010---

Generation = 6, Population = 67.
-----1-*0.0*-
0-.--0-**.-01
-10.-.1.0-0--
-1*-.1--0-*--
--01--1-1----
1--0--*-*1*1-
---010-.-*1--
-.1000*111---
--00-0*0--0--
01--00*-1.-1-
01-.-11-.1-11
--*-----.1---

Generation = 9, Population = 63.
---10.1.0.**-
1-*101-.*.01.
---.-.-.01.--
**.0.-1.--.--
---*0-*0**110
*--101*-....-
01-..0-.-.---
-.1-*-..**---
--0-1-.1-11-0
1-0-1-.--.-.0
1--.1-10*.0*.
--.---*0..100

Generation = 12, Population = 61.
-11--**.-..*-
*-..*.-...0-*
-.-.**.*1*.11
*..-.-*.--*1-
-*-.1-.-**-*1
*1--*..1.*..1
-.-...*.-*-*-
*.*-*1...*--*
--10-..*0-.--
*-*0-0.*1*-.*
.--*.*-..*-..
*-.0--.-*.1.*

Generation = 15, Population = 52.
-*.-1*****..-
.-...*1...1-.
-.-.....**.*-
...-.-..-0.**
1.1..0*-....-
*-*1..*-*.*..
1.**.....*-*-
.***......*-.
--.-1...--*--
**.*-....**..
.-**.****.-..
.-*-1.**..-..

Generation = 18, Population = 47.
-..**.......-
.-.**.1*.*1*.
-.-..****.*.1
..*-.*.*-1...
**.*.*.*....-
.*.-...1.....
...**.....1*-
......*..*.1.
-*.*1...--.--
..**1........
.1...*.*..0..
.****.....-..

Generation = 21, Population = 51.
-........*.*1
.0*...-.*....
-.-**...*..*-
...-**..-**..
**...*.**...-
**.-.*..*.***
**....**..***
......**.*...
-*..-.**--.**
...*-..*.**..
......*...-..
**.**.....1..

*** Life<Cell> 15x25 ***

Generation = 0, Population = 13.
0---0-------------0------
-----------------0-------
-------------------------
------------0------------
-------------------------
-------------------------
-------------------------
-------------------------
---0-------------0-------
-------------------------
------0--------0---------
---------0---------------
------------------0------
-------------------------
---------------------0-0-

Generation = 1, Population = 40.
-0-0-0-------------0-----
0---0-----------0--------
------------0----0-------
-----------0-0-----------
------------0------------
-------------------------
-------------------------
---0-------------0-------
--0-0-----------0-0------
---0--0--------0-0-------
-----0-0-0----0-0--------
------0-0-0----0--0------
---------0-------0-0-----
------------------0--0-0-
--------------------0---0

Generation = 2, Population = 38.
----0-0---------0-0-0----
------------0--0---0-----
0---0-------------0------
----------0---0--0-------
-------------------------
------------0------------
---0-------------0-------
-------------------------
-0---00------------0-----
---------0---------------
---00---0----0----0------
-------0---0-------------
------0--------00---00-0-
---------0---------------
------------------00-----

Generation = 3, Population = 108.
---0---0----0------0-0---
0-----0----0-00---0------
-0-0-0----0-0-00---------
0---0----0-0-0-00--------
----------0-0-0--0-------
---0-------0-0---0-------
--0-0-------0---0-0------
-0-0-00----------0-0-----
0-0-0110-0--------0-0----
-0-0000---0--0----00-----
--0110-----00-0--0-0-----
---00-----0-00-00-0-00-0-
-----0---0-0--0110-011--0
------0-0-0----00-0000-0-
---------0-------0110----

Generation = 4, Population = 48.
0-0-0---0-----0-------0--
-------------1---0---0---
0---0-------------0------
--------0-------1--------
0--00------------10------
-----------------1-------
------0--------0---------
---------0--0------------
-------1-----0----1--0---
-------------------------
--1-------01-------1-0-0-
-----0-------1-----------
---0----------1--1---*00-
-------------------------
------0--------0-1**---0-

Generation = 5, Population = 114.
-----0-0-0-----0-0-----0-
--0-----0---0---0---0----
-0-0-0--0----0--0--0-0---
---0---0-0-----0---------
-00110--0---------10-----
0--00-0--------00*-------
-----0-0-0--0-0-00-------
------000-00---0--0--0---
------1-00----0--0-00-0--
--0----0--00-0----00---0-
-0-1-0---01*00----0-----0
--000-0---000----0-0--0--
--0-00---------11-0-1.-10
---0--0-------00--00-00--
-----0-0------0--**.0-0-0

Generation = 6, Population = 112.
--0-0---0-0-0-0-0-0-0-0-0
--------1--0----1------0-
0-01--0-1-----0-100-0-0--
------0---0--00---0--0---
-1--*1----------0-*10----
--------00--0--11.-0-----
0--0---10------------0---
-------1--11--0--0-------
--0--1*--10-----0---10---
-----0---0--01-----------
0--*1--001-.1-0---11--0--
---1---0---1---0-----0---
-01--10---000---*11--.0*1
-----0-------0----11-1---
---00-0-0----01-0**.-01--

Generation = 7, Population = 191.
-0---0-01--0----1------0-
0--00-00-0-----0------0--
--1*001-*000--1------0---
00000-1000-001-0----0----
0-01.*--000-000-1-**1----
00-000---100-00*-*-1-0---
-00-0-0---000-0000-00-0--
0-00-0-*---*00-0--0-0----
-0-00-*-0---0000---0*10--
0-00-1-0---0-*--0-00000--
-01**-0---1**0---0**0--0-
00-*-0-1-0-*0----0-00-000
01*-0-1--0111---*----*1**
-000-10-0-00-1---0**-*000
--0110---0--0-*-1***0-*0-

Generation = 8, Population = 65.
--00--0-*-0-0----0------0
---------1---------------
---.--*-.------0---------
---------1--1-----0-1----
---*..-----------1*.-----
----1----------.-.0------
0---1-------------0--0-0-
-------*---.-------------
0--11-.--1-0------1-.*-0-
---1-------1-.---0---1---
0-*..--0--*..-0---..1-01-
-1-.-----1-.1----10--0---
--.---*---*----1*11--.-..
----------------0-..0.---
---*---------0.-*...10.--

Generation = 9, Population = 121.
-01100--.0---0--1-0----0-
--00--------0--0-0------0
---.-0.0.---0-1-1-0-0----
---0--1-0-00-1-0--1--0---
--0...---0--0---1**.1----
0---*0---------.-.-1-0-0-
-0-0*0-1---------0100---0
---0--0.00-.-------------
-00-*1.10--10------0..--0
---*---0-0-*0.0-0----*---
-0*..-0-0-**.0-0--*.--1*0
---.--010-0*-100---0---0-
-1.--1.0--.11-1*.*-01.-..
---0--0---0--1----.*1*---
--0.1-------0-.0....-1.--

Generation = 10, Population = 141.
01**-10-.-0---0--0-0--0--
-------0-1-01-----0-0----
--1*0-*-.-0-10---01-----0
----0--0-111--0-1--01-0--
01-***0---------***.-0-0-
--0-.-00-1--0--.1.0*-----
----.-0--0------01-11----
---100-.-11.0----00-0----
011-**.--10--00-0-1-..-0-
--0*-1-1--0.-.-0-0000.-0-
01*..01-11...1-1-0..--**1
--0.---*---.1-1101-1---1-
0-.00-.1--.-*--**.-1-*-..
-0-------0--0----0****0--
-0-*-00---00--.-....-*.--

Generation = 11, Population = 180.
1-*.-*1-.---00-01-0--0-0-
00--000----1--0--010-00-0
-0**--*0.01--1---1----00-
0000--1--***----*011*0--0
1*0**.-0--000-00*...--0-0
0---*-11-*00-0-*-.-.-0-0-
--00*-1-0------0-----0---
00-*1--.0*-*--0-0--010-0-
1---...10-11-110----*.010
-01.0-0--01.-*-10-1-1.---
1-..*-*-**...-0-0-..10*.*
--1.00-*-1-.*1*-1--*00-*-
--*111.*00.1*0-...--1*-..
-10-01000---11-0-1**..10-
01-.-110--11--.-..**-**--

Generation = 12, Population = 181.
*1..-.-0.---1101*01-010--
--0-111--1---1----*1-----
01..--.1*--01-----1-00-10
---1-0*00...-10-.1--*10-1
*.1.*.01001-1011..**10-01
1--0.---0*1-0-0.-.-.010--
--11.-*1100--0-1---1--0--
-10.-00.1.1*0-1--001*-01-
*111**.*------*-0-1-..1*1
01**1-1-0--*0*-------.-0-
--*.*0*0....*111-0..*1**.
01*.1-0.--0*.**-*10*-10*-
--.--*..1-**.1-***11-.-*.
---0--1---00-----*....-10
1--.--*--0**-0.0.*.*-**--

Generation = 13, Population = 169.
.*..0*--.0-0**--*--01-10-
-0--*-*0--011*-01-.*0-000
1***0-.-.-11*11---*0--0*-
-0--01.-1.*.1---.-1-.-1--
.*-.*.-*-1---1-*..*.-1-1-
*001*--11.*-1-1.-.0.-*--0
0---*-*--11-0---01-*1----
--1.---.*.-*10*--11**-1--
.--*....0-1---*--0*-.*-.*
-*..*-*--01*1.01001-1.0--
-1...-.1..*..-**01.***..*
1-*.*-1.01-....-.-1.0-1.0
01*1-***--...*1*..*-1.-..
0-0-0-*00-111----..**.--1
-1-.-1.001.*--.-*.*.-.*-0

Generation = 14, Population = 165.
....-*-0.-0-.*0-*01------
----.1*11----.01-0..--1-1
*...1-*1.0**.**-11*--01.-
----1*.--.*.*100.1--.-*0-
..-...0*--1-1-1..***1*0--
*1--*0--*.*-*0-*1.1.-*0--
1---*-.-1*-0---11--.--0-0
01-*1-0**.1.*-*0-**..0-10
.1-*...*11*1--.--1.-..1*.
0.*..-.--1-.*.1*1--0*.-0-
-***.-*-.....1*.1-....*..
*-..*0*.1*-..*.-.-*.-1-*1
1-.*-...10****-...*1-.1*.
1-10--.--0***-000**.**11*
---.--.-1*.*--.0...*1..-1

Generation = 15, Population = 164.
....0*11*0-0.*-1*1*0--1-0
0---*-.-*--1-.1*--..--*--
....*-.-.1**...-*-*001*.0
0--1-..--....*-1.-11.1.11
..-...1*-1----*....*-.1--
**01*1--*.*0*11.-.*.-.100
-0--.-*-*.--00-*---.-0101
---*--1...*.*-*-0**..----
.*1**.*.**.*0-.--*.0***..
-....-.1-*-**.-.--11.*010
1.***-*1**..*-..*1.****.*
*-..*-*.-.-*...-.1**0--.*
-1**-*.*--....-**..*-.-..
*-*-0-.-01...111-*....***
1-0.--.0**.*--*1.***-.*-*

Generation = 16, Population = 166.
....-*--*1-1*.0-*-*111*--
-0-0*-*-.1--1.*.10..0-*0-
...**0.-.****..0*-*1-*..1
-00--..0-*....0-.1-*.*.*-
*.1..***0--011.*...*1**1-
**--**1-*.*-.*-*-...-.*1-
-1--.-*-..--1--*-1-.11*1-
---*-0-.*.*..0*01***.--10
..-****.**..11.--..-.....
0....-.*-.-..*-.10**..---
**.**-**.*..*1..*-......*
*-...0..1.0....1.-..--1*.
1**.-***-0....-*...*-.1.*
*1.0--*0--*..***0*.*..*.*
*-1*1-.1.**.0-.-.**.1.*0*
