*** Life<Cell> 9x9 ***

Generation = 0, Population = 3.
---------
---------
---------
---------
---000---
---------
---------
---------
---------

Generation = 1, Population = 10.
---------
---------
---------
---000---
--01-10--
---000---
---------
---------
---------

Generation = 2, Population = 12.
---------
---------
---000---
---------
-01*-*10-
---------
---000---
---------
---------

Generation = 3, Population = 28.
---------
---000---
--01-10--
-00-0-00-
01-.-.-10
-00-0-00-
--01-10--
---000---
---------

*** Life<Cell> 13x9 ***

Generation = 0, Population = 13.
-----0-0-
-------00
---------
-------0-
--0------
---------
---------
---------
0--------
-----000-
---00----
---------
0--------

Generation = 4, Population = 31.
-010---*-
---11-1-.
-----0-0-
---0---0*
-----000-
-----01-1
---10----
-------*-
0---0----
-111-.-..
--.----11
---------
0-*0-----

Generation = 8, Population = 52.
1**1*0-*-
0--...*.*
--01--*.-
---*---**
0---0---1
---1--..-
*-1..1-.1
---1-*..1
--1*00--0
0*1***0..
--*.*-**.
0--.10---
01.*.*0-*

Generation = 12, Population = 55.
-..1*-..-
.-0*....*
11.*.0..-
-*-.1--.*
101.-..0*
10-*1-**-
**-.*.0.*
--..-****
*0****0-*
.*1.*.1..
-1...-*..
-**.111*-
-.*...**.

*** Life<Cell> 6x4 ***

Generation = 0, Population = 16.
0000
-000
--00
--00
0-0-
000-

Generation = 5, Population = 13.
.-.0
10**
---.
01--
*1-1
*-11

Generation = 10, Population = 11.
.1..
**..
*-1.
11*-
.--*
.-**

*** Life<Cell> 10x7 ***

Generation = 0, Population = 7.
-------
0-00---
-------
-------
-------
-----0-
----0--
-------
-----0-
----0--

Generation = 5, Population = 33.
---0-00
0**-.**
------0
--1-00-
0000-10
-------
1-00--.
00-0-10
--0-100
----111

Generation = 10, Population = 33.
00.0*0-
*..*...
*--*.1-
-*.*.--
**-.0**
**-0--*
.-.---.
0*0---1
--1-10.
1-*-***

*** Life<Cell> 4x5 ***

Generation = 0, Population = 7.
-0-0-
0----
-0000
-----

Generation = 1, Population = 10.
----0
-00-0
-1--1
-0000

Generation = 2, Population = 9.
-0001
0-1--
0-0--
0----

Generation = 3, Population = 11.
-11-*
10--0
--10-
100--

Generation = 4, Population = 7.
--*-.
*-1-1
-1-1-
*----

Generation = 5, Population = 9.
01.0.
.0*0-
0-1--
.--0-

Generation = 6, Population = 7.
1-.1.
.-.-1
-1*1-
.---0

Generation = 7, Population = 10.
-1.-.
.0.0-
0***1
.00--

*** Life<Cell> 15x8 ***

Generation = 0, Population = 15.
-000----
--------
--------
--0-----
----0---
-------0
--00----
-----0--
---0----
------0-
--0---0-
-----0--
-----0--
--------
--------

Generation = 2, Population = 39.
1-0-10--
--1-----
-0100---
0---1--0
---1--0-
--1----0
01-*-1--
---0--1-
-0-0-11-
----0---
0--1-0--
---0--00
--00--10
-----1--
-----0--

Generation = 4, Population = 41.
11--**10
-------0
-**-----
0---.10-
100-----
---1-10-
*.*.---1
-01--1.1
----1.-1
--0---*0
0--.----
-0---1-0
-1-0---0
-----.0-
--0--*1-

Generation = 6, Population = 66.
*.**.*10
1-*-110*
0..-0111
*--0***-
10*1---0
01*-0.*-
...*01-.
0*1-01.1
----1*--
1-0---.0
001.0---
--1--1-*
1.10--1*
-1---.*0
010--*1-

Generation = 8, Population = 59.
..**...0
-0*---0.
0..--1-1
*---*.*-
*-.1----
-*.1*.*0
*...-10.
**.1-**-
0---1.*1
*1*--1*-
0-**-010
--10011.
1*--111.
-.110*.-
-.*1-.1-

*** Life<Cell> 5x5 ***

Generation = 0, Population = 12.
00---
--000
0----
0-0-0
0--00

Generation = 9, Population = 10.
..0.1
*0*..
*...*
-*--*
..*..

*** Life<Cell> 1x1 ***

Generation = 0, Population = 1.
0

Generation = 3, Population = 0.
-

*** Life<Cell> 3x7 ***

Generation = 0, Population = 7.
0---0--
----0-0
-0--0-0

Generation = 5, Population = 8.
*-1-.-1
-0.--0.
*-*-.0.

*** Life<Cell> 5x2 ***

Generation = 0, Population = 5.
00
-0
--
00
--

Generation = 2, Population = 4.
--
0-
10
*-
--

Generation = 4, Population = 7.
*0
--
**
*-
10

Generation = 6, Population = 5.
.-
1-
**
.-
1*

Generation = 8, Population = 5.
.-
*-
**
*1
..

Generation = 10, Population = 2.
.-
.1
..
.1
..

Generation = 12, Population = 1.
.-
.1
..
.-
..
