*** Life<FredkinCell> 6x10 ***

Generation = 0, Population = 9.
00---0----
----------
------0---
------00--
0----0----
---0------

Generation = 2, Population = 25.
-21--010--
------10--
-0--0---0-
---000--10
0-01--01--
-0-0-100--

Generation = 4, Population = 16.
2-3-1-3--0
---0------
101--0----
--0------2
--2-0----1
------2---

Generation = 6, Population = 31.
-3--11-11-
-11--1---1
3-1-2-20--
1--12-01-4
-1--0111-3
--1-1-2-01

Generation = 8, Population = 19.
35----3330
---1--10--
-----1----
3----2-3--
0----1-11-
---1-----1

Generation = 10, Population = 32.
-7412----2
12--12-002
-0-1-320-0
5-02-21---
2-33--11-3
10-1------

*** Life<FredkinCell> 4x9 ***

Generation = 0, Population = 9.
----0--0-
--0-0----
--0---0-0
---0----0

Generation = 2, Population = 20.
----21-01
0-202-1-1
0---1-00-
-000101--

Generation = 4, Population = 15.
1-10--12-
--404-3--
2-----22-
--0---10-

Generation = 6, Population = 20.
-0-0----2
11---0-12
---121422
1--121-02

Generation = 8, Population = 16.
---03--34
--515-4--
--2-4--24
1---4--02

Generation = 10, Population = 19.
-1-0----6
-25-7142-
3-42-2-2-
--12-220-

*** Life<FredkinCell> 4x4 ***

Generation = 0, Population = 8.
-0--
-000
0-00
0---

Generation = 2, Population = 8.
120-
-0--
--00
-1-1

Generation = 4, Population = 8.
342-
-2--
--20
-1-3

Generation = 6, Population = 8.
564-
-4--
--40
-1-5

Generation = 8, Population = 8.
786-
-6--
--60
-1-7

Generation = 10, Population = 8.
9+8-
-8--
--80
-1-9

*** Life<FredkinCell> 10x4 ***

Generation = 0, Population = 10.
00--
--00
--00
---0
---0
----
-0--
-0--
----
----

Generation = 2, Population = 11.
-2--
10--
----
-00-
--1-
-1-1
----
---0
-1--
-0--

Generation = 4, Population = 15.
-4-0
30-0
-01-
----
0---
--11
-20-
-2--
---1
-2--

Generation = 6, Population = 19.
-602
521-
-0--
121-
0-3-
1--3
----
-40-
--11
---1

Generation = 8, Population = 22.
1624
72-1
10--
-4--
-15-
-213
1--1
---0
02-1
--0-

Generation = 10, Population = 19.
-8-4
9-2-
--3-
1-10
13--
2--3
-2--
----
-423
1-02

*** Life<FredkinCell> 1x6 ***

Generation = 0, Population = 6.
000000

Generation = 2, Population = 2.
-0--0-

Generation = 4, Population = 2.
--11--

Generation = 6, Population = 4.
11--11

Generation = 8, Population = 2.
3----3

Generation = 10, Population = 4.
3-22-3

*** Life<FredkinCell> 12x7 ***

Generation = 0, Population = 10.
-----0-
-0-----
-------
-------
--0----
--00---
---0---
-------
---0---
-0----0
-------
0------

Generation = 2, Population = 34.
---0-0-
---0---
--0--0-
-010---
0--00--
01--10-
-002-0-
-000--0
-1-0-0-
1--10-0
---0---
-10---0

Generation = 4, Population = 25.
-01--0-
--02-0-
---1-0-
-------
2--0-00
0------
-------
1------
--1----
10-321-
---2---
-32-0-0

Generation = 6, Population = 46.
12111--
00-200-
0-1--21
1-20-0-
412-0-2
--0----
0-12-10
122100-
0--01--
--1-23-
-00--1-
-----00

Generation = 8, Population = 17.
-------
-002--0
--3----
1------
-------
11-----
-----1-
-2----0
---0-1-
-1-----
---4---
--40---

Generation = 10, Population = 31.
--2----
-2-4-10
1---0--
---1--0
--3--1-
-310--0
-----1-
3--21-0
-2-----
-13---0
-2-6---
0-6010-

*** Life<FredkinCell> 5x6 ***

Generation = 0, Population = 8.
-000-0
--0--0
-----0
-0----
------

Generation = 2, Population = 15.
1-220-
00-010
-11---
--10-1
-----0

Generation = 4, Population = 14.
3--4-1
0010-2
--1--1
-----3
-011--

Generation = 6, Population = 14.
-1----
-03-22
-1301-
011---
1---1-

Generation = 8, Population = 14.
--3-1-
-2--24
--30-1
-3-1-4
-123--

Generation = 10, Population = 13.
4-35-2
-240--
0-----
----06
3--32-

*** Life<FredkinCell> 11x4 ***

Generation = 0, Population = 10.
---0
----
0-0-
----
----
--00
00--
0-0-
----
-0--
----

Generation = 2, Population = 22.
001-
----
--01
--10
-01-
-022
0-11
-1-1
11--
1-10
----

Generation = 4, Population = 19.
203-
--01
-1-1
0-3-
---1
0-2-
01-3
2---
----
--3-
10--

Generation = 6, Population = 22.
4---
-101
0-03
0-31
00-1
----
2323
--0-
---0
----
-200

Generation = 8, Population = 19.
4--1
-321
--2-
----
0-3-
1--2
4-4-
4---
11-0
--4-
3-0-

Generation = 10, Population = 22.
-0--
05--
1-44
103-
2-3-
-132
-3-4
---3
131-
----
-3-2

*** Life<FredkinCell> 5x8 ***

Generation = 0, Population = 8.
------0-
--0-----
-0--0--0
---0----
0-0-----

Generation = 2, Population = 16.
-0----01
0--11---
1--0-1-0
-10--0--
00-----0

Generation = 4, Population = 18.
00--1-23
2-1---1-
-002--0-
---0---0
200----0

Generation = 6, Population = 23.
--0--02-
--31---0
2222132-
112---02
4-2-001-

Generation = 8, Population = 16.
-2--2--4
--5-2-2-
24--1321
-----2--
-1----11

Generation = 10, Population = 18.
1-11---4
4-5--14-
4----5--
--310-23
6--0---3

*** Life<FredkinCell> 2x11 ***

Generation = 0, Population = 9.
00-0----000
-0-0----0--

Generation = 2, Population = 10.
--0--001-02
-----00-2-1

Generation = 4, Population = 11.
1-02--23---
---110-12-3

Generation = 6, Population = 13.
10-2--4301-
-10-12---03

Generation = 8, Population = 9.
--2-0-----2
01---40-30-

Generation = 10, Population = 9.
3-----6-1--
-31-26---24
